PCBNEW-LibModule-V1  2022-03-09 21:31:31
# encoding utf-8
Units mm
$INDEX
BH18650PC
$EndINDEX
$MODULE BH18650PC
Po 0 0 0 15 62291cb3 00000000 ~~
Li BH18650PC
Cd BH-18650-PC-1
Kw Battery
Sc 0
At STD
AR 
Op 0 0 0
T0 36.050 -0 1.27 1.27 0 0.254 N V 21 N "BT**"
T1 36.050 -0 1.27 1.27 0 0.254 N I 21 N "BH18650PC"
DS -2.4 10.45 75.3 10.45 0.2 24
DS 75.3 10.45 75.3 -10.45 0.2 24
DS 75.3 -10.45 -2.4 -10.45 0.2 24
DS -2.4 -10.45 -2.4 10.45 0.2 24
DS -2.4 -10.45 75.3 -10.45 0.1 21
DS 75.3 -10.45 75.3 10.45 0.1 21
DS 75.3 10.45 -2.4 10.45 0.1 21
DS -2.4 10.45 -2.4 -10.45 0.1 21
DS -4.2 -11.45 76.3 -11.45 0.1 24
DS 76.3 -11.45 76.3 11.45 0.1 24
DS 76.3 11.45 -4.2 11.45 0.1 24
DS -4.2 11.45 -4.2 -11.45 0.1 24
DS -3.2 -0 -3.2 -0 0.2 21
DS -3.1 -0 -3.1 -0 0.2 21
DS -3.2 -0 -3.2 -0 0.2 21
DA -3.15 -0 -3.200 -0 -1800 0.2 21
DA -3.15 -0 -3.100 -0 -1800 0.2 21
DA -3.15 -0 -3.200 -0 -1800 0.2 21
$PAD
Po 0.000 -0
Sh "1" C 4.155 4.155 0 0 900
Dr 2.77 0 0
At STD N 00E0FFFF
Ne 0 ""
$EndPAD
$PAD
Po 72.900 -0
Sh "2" C 4.155 4.155 0 0 900
Dr 2.77 0 0
At STD N 00E0FFFF
Ne 0 ""
$EndPAD
$PAD
Po 8.645 -0
Sh "MH1" C 1.600 1.600 0 0 900
Dr 3.2 0 0
At STD N 00E0FFFF
Ne 0 ""
$EndPAD
$PAD
Po 64.255 -0
Sh "MH2" C 1.600 1.600 0 0 900
Dr 3.2 0 0
At STD N 00E0FFFF
Ne 0 ""
$EndPAD
$EndMODULE BH18650PC
$EndLIBRARY
