%TF.GenerationSoftware,KiCad,Pcbnew,(6.0.2)*%
%TF.CreationDate,2022-04-08T12:02:25+02:00*%
%TF.ProjectId,main,6d61696e-2e6b-4696-9361-645f70636258,rev?*%
%TF.SameCoordinates,Original*%
%TF.FileFunction,Legend,Bot*%
%TF.FilePolarity,Positive*%
%FSLAX46Y46*%
G04 Gerber Fmt 4.6, Leading zero omitted, Abs format (unit mm)*
G04 Created by KiCad (PCBNEW (6.0.2)) date 2022-04-08 12:02:25*
%MOMM*%
%LPD*%
G01*
G04 APERTURE LIST*
%ADD10C,0.150000*%
%ADD11C,0.120000*%
G04 APERTURE END LIST*
D10*
X145747619Y-129847380D02*
X145747619Y-128847380D01*
X145176190Y-129847380D02*
X145604761Y-129275952D01*
X145176190Y-128847380D02*
X145747619Y-129418809D01*
X144319047Y-129847380D02*
X144319047Y-129323571D01*
X144366666Y-129228333D01*
X144461904Y-129180714D01*
X144652380Y-129180714D01*
X144747619Y-129228333D01*
X144319047Y-129799761D02*
X144414285Y-129847380D01*
X144652380Y-129847380D01*
X144747619Y-129799761D01*
X144795238Y-129704523D01*
X144795238Y-129609285D01*
X144747619Y-129514047D01*
X144652380Y-129466428D01*
X144414285Y-129466428D01*
X144319047Y-129418809D01*
X143938095Y-129180714D02*
X143747619Y-129847380D01*
X143557142Y-129371190D01*
X143366666Y-129847380D01*
X143176190Y-129180714D01*
X142366666Y-129847380D02*
X142366666Y-129323571D01*
X142414285Y-129228333D01*
X142509523Y-129180714D01*
X142700000Y-129180714D01*
X142795238Y-129228333D01*
X142366666Y-129799761D02*
X142461904Y-129847380D01*
X142700000Y-129847380D01*
X142795238Y-129799761D01*
X142842857Y-129704523D01*
X142842857Y-129609285D01*
X142795238Y-129514047D01*
X142700000Y-129466428D01*
X142461904Y-129466428D01*
X142366666Y-129418809D01*
X141557142Y-129323571D02*
X141414285Y-129371190D01*
X141366666Y-129418809D01*
X141319047Y-129514047D01*
X141319047Y-129656904D01*
X141366666Y-129752142D01*
X141414285Y-129799761D01*
X141509523Y-129847380D01*
X141890476Y-129847380D01*
X141890476Y-128847380D01*
X141557142Y-128847380D01*
X141461904Y-128895000D01*
X141414285Y-128942619D01*
X141366666Y-129037857D01*
X141366666Y-129133095D01*
X141414285Y-129228333D01*
X141461904Y-129275952D01*
X141557142Y-129323571D01*
X141890476Y-129323571D01*
X140461904Y-129180714D02*
X140461904Y-129847380D01*
X140890476Y-129180714D02*
X140890476Y-129704523D01*
X140842857Y-129799761D01*
X140747619Y-129847380D01*
X140604761Y-129847380D01*
X140509523Y-129799761D01*
X140461904Y-129752142D01*
X139985714Y-129180714D02*
X139985714Y-129847380D01*
X139985714Y-129275952D02*
X139938095Y-129228333D01*
X139842857Y-129180714D01*
X139700000Y-129180714D01*
X139604761Y-129228333D01*
X139557142Y-129323571D01*
X139557142Y-129847380D01*
X138652380Y-129180714D02*
X138652380Y-129990238D01*
X138700000Y-130085476D01*
X138747619Y-130133095D01*
X138842857Y-130180714D01*
X138985714Y-130180714D01*
X139080952Y-130133095D01*
X138652380Y-129799761D02*
X138747619Y-129847380D01*
X138938095Y-129847380D01*
X139033333Y-129799761D01*
X139080952Y-129752142D01*
X139128571Y-129656904D01*
X139128571Y-129371190D01*
X139080952Y-129275952D01*
X139033333Y-129228333D01*
X138938095Y-129180714D01*
X138747619Y-129180714D01*
X138652380Y-129228333D01*
X137747619Y-129847380D02*
X137747619Y-129323571D01*
X137795238Y-129228333D01*
X137890476Y-129180714D01*
X138080952Y-129180714D01*
X138176190Y-129228333D01*
X137747619Y-129799761D02*
X137842857Y-129847380D01*
X138080952Y-129847380D01*
X138176190Y-129799761D01*
X138223809Y-129704523D01*
X138223809Y-129609285D01*
X138176190Y-129514047D01*
X138080952Y-129466428D01*
X137842857Y-129466428D01*
X137747619Y-129418809D01*
X136176190Y-129323571D02*
X136033333Y-129371190D01*
X135985714Y-129418809D01*
X135938095Y-129514047D01*
X135938095Y-129656904D01*
X135985714Y-129752142D01*
X136033333Y-129799761D01*
X136128571Y-129847380D01*
X136509523Y-129847380D01*
X136509523Y-128847380D01*
X136176190Y-128847380D01*
X136080952Y-128895000D01*
X136033333Y-128942619D01*
X135985714Y-129037857D01*
X135985714Y-129133095D01*
X136033333Y-129228333D01*
X136080952Y-129275952D01*
X136176190Y-129323571D01*
X136509523Y-129323571D01*
X135080952Y-129847380D02*
X135080952Y-129323571D01*
X135128571Y-129228333D01*
X135223809Y-129180714D01*
X135414285Y-129180714D01*
X135509523Y-129228333D01*
X135080952Y-129799761D02*
X135176190Y-129847380D01*
X135414285Y-129847380D01*
X135509523Y-129799761D01*
X135557142Y-129704523D01*
X135557142Y-129609285D01*
X135509523Y-129514047D01*
X135414285Y-129466428D01*
X135176190Y-129466428D01*
X135080952Y-129418809D01*
X134604761Y-129847380D02*
X134604761Y-128847380D01*
X134604761Y-129228333D02*
X134509523Y-129180714D01*
X134319047Y-129180714D01*
X134223809Y-129228333D01*
X134176190Y-129275952D01*
X134128571Y-129371190D01*
X134128571Y-129656904D01*
X134176190Y-129752142D01*
X134223809Y-129799761D01*
X134319047Y-129847380D01*
X134509523Y-129847380D01*
X134604761Y-129799761D01*
X133795238Y-129180714D02*
X133557142Y-129847380D01*
X133319047Y-129180714D02*
X133557142Y-129847380D01*
X133652380Y-130085476D01*
X133700000Y-130133095D01*
X133795238Y-130180714D01*
X143580952Y-130505000D02*
X143104761Y-130505000D01*
X143152380Y-130362142D02*
X142295238Y-131647857D01*
X142390476Y-131552619D02*
X141628571Y-131552619D01*
X141104761Y-131838333D02*
X141152380Y-131790714D01*
X141247619Y-131647857D01*
X141295238Y-131552619D01*
X141342857Y-131409761D01*
X141390476Y-131171666D01*
X141390476Y-130981190D01*
X141342857Y-130743095D01*
X141295238Y-130600238D01*
X141247619Y-130505000D01*
X141152380Y-130362142D01*
X141104761Y-130314523D01*
X139771428Y-130457380D02*
X139676190Y-130457380D01*
X139580952Y-130505000D01*
X139533333Y-130552619D01*
X139485714Y-130647857D01*
X139438095Y-130838333D01*
X139438095Y-131076428D01*
X139485714Y-131266904D01*
X139533333Y-131362142D01*
X139580952Y-131409761D01*
X139676190Y-131457380D01*
X139771428Y-131457380D01*
X139866666Y-131409761D01*
X139914285Y-131362142D01*
X139961904Y-131266904D01*
X140009523Y-131076428D01*
X140009523Y-130838333D01*
X139961904Y-130647857D01*
X139914285Y-130552619D01*
X139866666Y-130505000D01*
X139771428Y-130457380D01*
X139009523Y-131362142D02*
X138961904Y-131409761D01*
X139009523Y-131457380D01*
X139057142Y-131409761D01*
X139009523Y-131362142D01*
X139009523Y-131457380D01*
X138342857Y-130457380D02*
X138247619Y-130457380D01*
X138152380Y-130505000D01*
X138104761Y-130552619D01*
X138057142Y-130647857D01*
X138009523Y-130838333D01*
X138009523Y-131076428D01*
X138057142Y-131266904D01*
X138104761Y-131362142D01*
X138152380Y-131409761D01*
X138247619Y-131457380D01*
X138342857Y-131457380D01*
X138438095Y-131409761D01*
X138485714Y-131362142D01*
X138533333Y-131266904D01*
X138580952Y-131076428D01*
X138580952Y-130838333D01*
X138533333Y-130647857D01*
X138485714Y-130552619D01*
X138438095Y-130505000D01*
X138342857Y-130457380D01*
X137676190Y-131838333D02*
X137628571Y-131790714D01*
X137533333Y-131647857D01*
X137485714Y-131552619D01*
X137438095Y-131409761D01*
X137390476Y-131171666D01*
X137390476Y-130981190D01*
X137438095Y-130743095D01*
X137485714Y-130600238D01*
X137533333Y-130505000D01*
X137628571Y-130362142D01*
X137676190Y-130314523D01*
X137152380Y-131552619D02*
X136390476Y-131552619D01*
X135438095Y-130409761D02*
X136295238Y-131695476D01*
X135295238Y-130505000D02*
X134819047Y-130505000D01*
X171685714Y-95085000D02*
X171780952Y-95037380D01*
X171923809Y-95037380D01*
X172066666Y-95085000D01*
X172161904Y-95180238D01*
X172209523Y-95275476D01*
X172257142Y-95465952D01*
X172257142Y-95608809D01*
X172209523Y-95799285D01*
X172161904Y-95894523D01*
X172066666Y-95989761D01*
X171923809Y-96037380D01*
X171828571Y-96037380D01*
X171685714Y-95989761D01*
X171638095Y-95942142D01*
X171638095Y-95608809D01*
X171828571Y-95608809D01*
X170638095Y-96037380D02*
X170971428Y-95561190D01*
X171209523Y-96037380D02*
X171209523Y-95037380D01*
X170828571Y-95037380D01*
X170733333Y-95085000D01*
X170685714Y-95132619D01*
X170638095Y-95227857D01*
X170638095Y-95370714D01*
X170685714Y-95465952D01*
X170733333Y-95513571D01*
X170828571Y-95561190D01*
X171209523Y-95561190D01*
X170019047Y-95037380D02*
X169828571Y-95037380D01*
X169733333Y-95085000D01*
X169638095Y-95180238D01*
X169590476Y-95370714D01*
X169590476Y-95704047D01*
X169638095Y-95894523D01*
X169733333Y-95989761D01*
X169828571Y-96037380D01*
X170019047Y-96037380D01*
X170114285Y-95989761D01*
X170209523Y-95894523D01*
X170257142Y-95704047D01*
X170257142Y-95370714D01*
X170209523Y-95180238D01*
X170114285Y-95085000D01*
X170019047Y-95037380D01*
X169161904Y-95037380D02*
X169161904Y-95846904D01*
X169114285Y-95942142D01*
X169066666Y-95989761D01*
X168971428Y-96037380D01*
X168780952Y-96037380D01*
X168685714Y-95989761D01*
X168638095Y-95942142D01*
X168590476Y-95846904D01*
X168590476Y-95037380D01*
X168114285Y-96037380D02*
X168114285Y-95037380D01*
X167733333Y-95037380D01*
X167638095Y-95085000D01*
X167590476Y-95132619D01*
X167542857Y-95227857D01*
X167542857Y-95370714D01*
X167590476Y-95465952D01*
X167638095Y-95513571D01*
X167733333Y-95561190D01*
X168114285Y-95561190D01*
X166447619Y-95037380D02*
X165828571Y-95037380D01*
X166161904Y-95418333D01*
X166019047Y-95418333D01*
X165923809Y-95465952D01*
X165876190Y-95513571D01*
X165828571Y-95608809D01*
X165828571Y-95846904D01*
X165876190Y-95942142D01*
X165923809Y-95989761D01*
X166019047Y-96037380D01*
X166304761Y-96037380D01*
X166400000Y-95989761D01*
X166447619Y-95942142D01*
X164923809Y-95037380D02*
X165400000Y-95037380D01*
X165447619Y-95513571D01*
X165400000Y-95465952D01*
X165304761Y-95418333D01*
X165066666Y-95418333D01*
X164971428Y-95465952D01*
X164923809Y-95513571D01*
X164876190Y-95608809D01*
X164876190Y-95846904D01*
X164923809Y-95942142D01*
X164971428Y-95989761D01*
X165066666Y-96037380D01*
X165304761Y-96037380D01*
X165400000Y-95989761D01*
X165447619Y-95942142D01*
X163733333Y-95989761D02*
X163590476Y-96037380D01*
X163352380Y-96037380D01*
X163257142Y-95989761D01*
X163209523Y-95942142D01*
X163161904Y-95846904D01*
X163161904Y-95751666D01*
X163209523Y-95656428D01*
X163257142Y-95608809D01*
X163352380Y-95561190D01*
X163542857Y-95513571D01*
X163638095Y-95465952D01*
X163685714Y-95418333D01*
X163733333Y-95323095D01*
X163733333Y-95227857D01*
X163685714Y-95132619D01*
X163638095Y-95085000D01*
X163542857Y-95037380D01*
X163304761Y-95037380D01*
X163161904Y-95085000D01*
X162352380Y-95989761D02*
X162447619Y-96037380D01*
X162638095Y-96037380D01*
X162733333Y-95989761D01*
X162780952Y-95894523D01*
X162780952Y-95513571D01*
X162733333Y-95418333D01*
X162638095Y-95370714D01*
X162447619Y-95370714D01*
X162352380Y-95418333D01*
X162304761Y-95513571D01*
X162304761Y-95608809D01*
X162780952Y-95704047D01*
X161876190Y-95370714D02*
X161876190Y-96037380D01*
X161876190Y-95465952D02*
X161828571Y-95418333D01*
X161733333Y-95370714D01*
X161590476Y-95370714D01*
X161495238Y-95418333D01*
X161447619Y-95513571D01*
X161447619Y-96037380D01*
X161019047Y-95989761D02*
X160923809Y-96037380D01*
X160733333Y-96037380D01*
X160638095Y-95989761D01*
X160590476Y-95894523D01*
X160590476Y-95846904D01*
X160638095Y-95751666D01*
X160733333Y-95704047D01*
X160876190Y-95704047D01*
X160971428Y-95656428D01*
X161019047Y-95561190D01*
X161019047Y-95513571D01*
X160971428Y-95418333D01*
X160876190Y-95370714D01*
X160733333Y-95370714D01*
X160638095Y-95418333D01*
X160019047Y-96037380D02*
X160114285Y-95989761D01*
X160161904Y-95942142D01*
X160209523Y-95846904D01*
X160209523Y-95561190D01*
X160161904Y-95465952D01*
X160114285Y-95418333D01*
X160019047Y-95370714D01*
X159876190Y-95370714D01*
X159780952Y-95418333D01*
X159733333Y-95465952D01*
X159685714Y-95561190D01*
X159685714Y-95846904D01*
X159733333Y-95942142D01*
X159780952Y-95989761D01*
X159876190Y-96037380D01*
X160019047Y-96037380D01*
X159257142Y-96037380D02*
X159257142Y-95370714D01*
X159257142Y-95561190D02*
X159209523Y-95465952D01*
X159161904Y-95418333D01*
X159066666Y-95370714D01*
X158971428Y-95370714D01*
X157876190Y-96037380D02*
X157876190Y-95037380D01*
X157495238Y-95037380D01*
X157400000Y-95085000D01*
X157352380Y-95132619D01*
X157304761Y-95227857D01*
X157304761Y-95370714D01*
X157352380Y-95465952D01*
X157400000Y-95513571D01*
X157495238Y-95561190D01*
X157876190Y-95561190D01*
X156876190Y-96037380D02*
X156876190Y-95370714D01*
X156876190Y-95561190D02*
X156828571Y-95465952D01*
X156780952Y-95418333D01*
X156685714Y-95370714D01*
X156590476Y-95370714D01*
X156114285Y-96037380D02*
X156209523Y-95989761D01*
X156257142Y-95942142D01*
X156304761Y-95846904D01*
X156304761Y-95561190D01*
X156257142Y-95465952D01*
X156209523Y-95418333D01*
X156114285Y-95370714D01*
X155971428Y-95370714D01*
X155876190Y-95418333D01*
X155828571Y-95465952D01*
X155780952Y-95561190D01*
X155780952Y-95846904D01*
X155828571Y-95942142D01*
X155876190Y-95989761D01*
X155971428Y-96037380D01*
X156114285Y-96037380D01*
X155352380Y-95370714D02*
X155352380Y-96227857D01*
X155400000Y-96323095D01*
X155495238Y-96370714D01*
X155542857Y-96370714D01*
X155352380Y-95037380D02*
X155400000Y-95085000D01*
X155352380Y-95132619D01*
X155304761Y-95085000D01*
X155352380Y-95037380D01*
X155352380Y-95132619D01*
X154495238Y-95989761D02*
X154590476Y-96037380D01*
X154780952Y-96037380D01*
X154876190Y-95989761D01*
X154923809Y-95894523D01*
X154923809Y-95513571D01*
X154876190Y-95418333D01*
X154780952Y-95370714D01*
X154590476Y-95370714D01*
X154495238Y-95418333D01*
X154447619Y-95513571D01*
X154447619Y-95608809D01*
X154923809Y-95704047D01*
X153590476Y-95989761D02*
X153685714Y-96037380D01*
X153876190Y-96037380D01*
X153971428Y-95989761D01*
X154019047Y-95942142D01*
X154066666Y-95846904D01*
X154066666Y-95561190D01*
X154019047Y-95465952D01*
X153971428Y-95418333D01*
X153876190Y-95370714D01*
X153685714Y-95370714D01*
X153590476Y-95418333D01*
X153304761Y-95370714D02*
X152923809Y-95370714D01*
X153161904Y-95037380D02*
X153161904Y-95894523D01*
X153114285Y-95989761D01*
X153019047Y-96037380D01*
X152923809Y-96037380D01*
X152590476Y-95942142D02*
X152542857Y-95989761D01*
X152590476Y-96037380D01*
X152638095Y-95989761D01*
X152590476Y-95942142D01*
X152590476Y-96037380D01*
X152590476Y-95418333D02*
X152542857Y-95465952D01*
X152590476Y-95513571D01*
X152638095Y-95465952D01*
X152590476Y-95418333D01*
X152590476Y-95513571D01*
X174352380Y-96647380D02*
X174352380Y-97361666D01*
X174400000Y-97504523D01*
X174495238Y-97599761D01*
X174638095Y-97647380D01*
X174733333Y-97647380D01*
X173495238Y-97599761D02*
X173590476Y-97647380D01*
X173780952Y-97647380D01*
X173876190Y-97599761D01*
X173923809Y-97504523D01*
X173923809Y-97123571D01*
X173876190Y-97028333D01*
X173780952Y-96980714D01*
X173590476Y-96980714D01*
X173495238Y-97028333D01*
X173447619Y-97123571D01*
X173447619Y-97218809D01*
X173923809Y-97314047D01*
X173066666Y-97599761D02*
X172971428Y-97647380D01*
X172780952Y-97647380D01*
X172685714Y-97599761D01*
X172638095Y-97504523D01*
X172638095Y-97456904D01*
X172685714Y-97361666D01*
X172780952Y-97314047D01*
X172923809Y-97314047D01*
X173019047Y-97266428D01*
X173066666Y-97171190D01*
X173066666Y-97123571D01*
X173019047Y-97028333D01*
X172923809Y-96980714D01*
X172780952Y-96980714D01*
X172685714Y-97028333D01*
X172257142Y-97599761D02*
X172161904Y-97647380D01*
X171971428Y-97647380D01*
X171876190Y-97599761D01*
X171828571Y-97504523D01*
X171828571Y-97456904D01*
X171876190Y-97361666D01*
X171971428Y-97314047D01*
X172114285Y-97314047D01*
X172209523Y-97266428D01*
X172257142Y-97171190D01*
X172257142Y-97123571D01*
X172209523Y-97028333D01*
X172114285Y-96980714D01*
X171971428Y-96980714D01*
X171876190Y-97028333D01*
X171019047Y-97599761D02*
X171114285Y-97647380D01*
X171304761Y-97647380D01*
X171400000Y-97599761D01*
X171447619Y-97504523D01*
X171447619Y-97123571D01*
X171400000Y-97028333D01*
X171304761Y-96980714D01*
X171114285Y-96980714D01*
X171019047Y-97028333D01*
X170971428Y-97123571D01*
X170971428Y-97218809D01*
X171447619Y-97314047D01*
X169828571Y-97361666D02*
X169352380Y-97361666D01*
X169923809Y-97647380D02*
X169590476Y-96647380D01*
X169257142Y-97647380D01*
X168923809Y-97647380D02*
X168923809Y-96980714D01*
X168923809Y-97171190D02*
X168876190Y-97075952D01*
X168828571Y-97028333D01*
X168733333Y-96980714D01*
X168638095Y-96980714D01*
X167923809Y-97599761D02*
X168019047Y-97647380D01*
X168209523Y-97647380D01*
X168304761Y-97599761D01*
X168352380Y-97504523D01*
X168352380Y-97123571D01*
X168304761Y-97028333D01*
X168209523Y-96980714D01*
X168019047Y-96980714D01*
X167923809Y-97028333D01*
X167876190Y-97123571D01*
X167876190Y-97218809D01*
X168352380Y-97314047D01*
X167447619Y-96980714D02*
X167447619Y-97647380D01*
X167447619Y-97075952D02*
X167400000Y-97028333D01*
X167304761Y-96980714D01*
X167161904Y-96980714D01*
X167066666Y-97028333D01*
X167019047Y-97123571D01*
X167019047Y-97647380D01*
X166114285Y-97647380D02*
X166114285Y-96647380D01*
X166114285Y-97599761D02*
X166209523Y-97647380D01*
X166400000Y-97647380D01*
X166495238Y-97599761D01*
X166542857Y-97552142D01*
X166590476Y-97456904D01*
X166590476Y-97171190D01*
X166542857Y-97075952D01*
X166495238Y-97028333D01*
X166400000Y-96980714D01*
X166209523Y-96980714D01*
X166114285Y-97028333D01*
X165685714Y-97599761D02*
X165590476Y-97647380D01*
X165400000Y-97647380D01*
X165304761Y-97599761D01*
X165257142Y-97504523D01*
X165257142Y-97456904D01*
X165304761Y-97361666D01*
X165400000Y-97314047D01*
X165542857Y-97314047D01*
X165638095Y-97266428D01*
X165685714Y-97171190D01*
X165685714Y-97123571D01*
X165638095Y-97028333D01*
X165542857Y-96980714D01*
X165400000Y-96980714D01*
X165304761Y-97028333D01*
X164447619Y-97599761D02*
X164542857Y-97647380D01*
X164733333Y-97647380D01*
X164828571Y-97599761D01*
X164876190Y-97504523D01*
X164876190Y-97123571D01*
X164828571Y-97028333D01*
X164733333Y-96980714D01*
X164542857Y-96980714D01*
X164447619Y-97028333D01*
X164400000Y-97123571D01*
X164400000Y-97218809D01*
X164876190Y-97314047D01*
X129638095Y-98028333D02*
X129685714Y-97980714D01*
X129780952Y-97837857D01*
X129828571Y-97742619D01*
X129876190Y-97599761D01*
X129923809Y-97361666D01*
X129923809Y-97171190D01*
X129876190Y-96933095D01*
X129828571Y-96790238D01*
X129780952Y-96695000D01*
X129685714Y-96552142D01*
X129638095Y-96504523D01*
X129304761Y-97361666D02*
X128828571Y-97361666D01*
X129400000Y-97647380D02*
X129066666Y-96647380D01*
X128733333Y-97647380D01*
X127828571Y-97647380D02*
X128161904Y-97171190D01*
X128400000Y-97647380D02*
X128400000Y-96647380D01*
X128019047Y-96647380D01*
X127923809Y-96695000D01*
X127876190Y-96742619D01*
X127828571Y-96837857D01*
X127828571Y-96980714D01*
X127876190Y-97075952D01*
X127923809Y-97123571D01*
X128019047Y-97171190D01*
X128400000Y-97171190D01*
X127400000Y-97647380D02*
X127400000Y-96647380D01*
X126828571Y-97647380D01*
X126828571Y-96647380D01*
X126066666Y-96647380D02*
X126066666Y-97361666D01*
X126114285Y-97504523D01*
X126209523Y-97599761D01*
X126352380Y-97647380D01*
X126447619Y-97647380D01*
X125590476Y-97123571D02*
X125257142Y-97123571D01*
X125114285Y-97647380D02*
X125590476Y-97647380D01*
X125590476Y-96647380D01*
X125114285Y-96647380D01*
X124733333Y-97599761D02*
X124590476Y-97647380D01*
X124352380Y-97647380D01*
X124257142Y-97599761D01*
X124209523Y-97552142D01*
X124161904Y-97456904D01*
X124161904Y-97361666D01*
X124209523Y-97266428D01*
X124257142Y-97218809D01*
X124352380Y-97171190D01*
X124542857Y-97123571D01*
X124638095Y-97075952D01*
X124685714Y-97028333D01*
X124733333Y-96933095D01*
X124733333Y-96837857D01*
X124685714Y-96742619D01*
X124638095Y-96695000D01*
X124542857Y-96647380D01*
X124304761Y-96647380D01*
X124161904Y-96695000D01*
X123542857Y-96647380D02*
X123447619Y-96647380D01*
X123352380Y-96695000D01*
X123304761Y-96742619D01*
X123257142Y-96837857D01*
X123209523Y-97028333D01*
X123209523Y-97266428D01*
X123257142Y-97456904D01*
X123304761Y-97552142D01*
X123352380Y-97599761D01*
X123447619Y-97647380D01*
X123542857Y-97647380D01*
X123638095Y-97599761D01*
X123685714Y-97552142D01*
X123733333Y-97456904D01*
X123780952Y-97266428D01*
X123780952Y-97028333D01*
X123733333Y-96837857D01*
X123685714Y-96742619D01*
X123638095Y-96695000D01*
X123542857Y-96647380D01*
X122590476Y-96647380D02*
X122495238Y-96647380D01*
X122400000Y-96695000D01*
X122352380Y-96742619D01*
X122304761Y-96837857D01*
X122257142Y-97028333D01*
X122257142Y-97266428D01*
X122304761Y-97456904D01*
X122352380Y-97552142D01*
X122400000Y-97599761D01*
X122495238Y-97647380D01*
X122590476Y-97647380D01*
X122685714Y-97599761D01*
X122733333Y-97552142D01*
X122780952Y-97456904D01*
X122828571Y-97266428D01*
X122828571Y-97028333D01*
X122780952Y-96837857D01*
X122733333Y-96742619D01*
X122685714Y-96695000D01*
X122590476Y-96647380D01*
X121780952Y-97647380D02*
X121590476Y-97647380D01*
X121495238Y-97599761D01*
X121447619Y-97552142D01*
X121352380Y-97409285D01*
X121304761Y-97218809D01*
X121304761Y-96837857D01*
X121352380Y-96742619D01*
X121400000Y-96695000D01*
X121495238Y-96647380D01*
X121685714Y-96647380D01*
X121780952Y-96695000D01*
X121828571Y-96742619D01*
X121876190Y-96837857D01*
X121876190Y-97075952D01*
X121828571Y-97171190D01*
X121780952Y-97218809D01*
X121685714Y-97266428D01*
X121495238Y-97266428D01*
X121400000Y-97218809D01*
X121352380Y-97171190D01*
X121304761Y-97075952D01*
X120971428Y-98028333D02*
X120923809Y-97980714D01*
X120828571Y-97837857D01*
X120780952Y-97742619D01*
X120733333Y-97599761D01*
X120685714Y-97361666D01*
X120685714Y-97171190D01*
X120733333Y-96933095D01*
X120780952Y-96790238D01*
X120828571Y-96695000D01*
X120923809Y-96552142D01*
X120971428Y-96504523D01*
X174423809Y-98257380D02*
X174423809Y-98971666D01*
X174471428Y-99114523D01*
X174566666Y-99209761D01*
X174709523Y-99257380D01*
X174804761Y-99257380D01*
X173519047Y-98590714D02*
X173519047Y-99257380D01*
X173947619Y-98590714D02*
X173947619Y-99114523D01*
X173900000Y-99209761D01*
X173804761Y-99257380D01*
X173661904Y-99257380D01*
X173566666Y-99209761D01*
X173519047Y-99162142D01*
X172900000Y-99257380D02*
X172995238Y-99209761D01*
X173042857Y-99114523D01*
X173042857Y-98257380D01*
X172519047Y-99257380D02*
X172519047Y-98590714D01*
X172519047Y-98257380D02*
X172566666Y-98305000D01*
X172519047Y-98352619D01*
X172471428Y-98305000D01*
X172519047Y-98257380D01*
X172519047Y-98352619D01*
X171614285Y-99257380D02*
X171614285Y-98733571D01*
X171661904Y-98638333D01*
X171757142Y-98590714D01*
X171947619Y-98590714D01*
X172042857Y-98638333D01*
X171614285Y-99209761D02*
X171709523Y-99257380D01*
X171947619Y-99257380D01*
X172042857Y-99209761D01*
X172090476Y-99114523D01*
X172090476Y-99019285D01*
X172042857Y-98924047D01*
X171947619Y-98876428D01*
X171709523Y-98876428D01*
X171614285Y-98828809D01*
X171138095Y-98590714D02*
X171138095Y-99257380D01*
X171138095Y-98685952D02*
X171090476Y-98638333D01*
X170995238Y-98590714D01*
X170852380Y-98590714D01*
X170757142Y-98638333D01*
X170709523Y-98733571D01*
X170709523Y-99257380D01*
X169138095Y-98733571D02*
X168995238Y-98781190D01*
X168947619Y-98828809D01*
X168900000Y-98924047D01*
X168900000Y-99066904D01*
X168947619Y-99162142D01*
X168995238Y-99209761D01*
X169090476Y-99257380D01*
X169471428Y-99257380D01*
X169471428Y-98257380D01*
X169138095Y-98257380D01*
X169042857Y-98305000D01*
X168995238Y-98352619D01*
X168947619Y-98447857D01*
X168947619Y-98543095D01*
X168995238Y-98638333D01*
X169042857Y-98685952D01*
X169138095Y-98733571D01*
X169471428Y-98733571D01*
X168042857Y-99257380D02*
X168042857Y-98733571D01*
X168090476Y-98638333D01*
X168185714Y-98590714D01*
X168376190Y-98590714D01*
X168471428Y-98638333D01*
X168042857Y-99209761D02*
X168138095Y-99257380D01*
X168376190Y-99257380D01*
X168471428Y-99209761D01*
X168519047Y-99114523D01*
X168519047Y-99019285D01*
X168471428Y-98924047D01*
X168376190Y-98876428D01*
X168138095Y-98876428D01*
X168042857Y-98828809D01*
X167566666Y-98590714D02*
X167566666Y-99257380D01*
X167566666Y-98685952D02*
X167519047Y-98638333D01*
X167423809Y-98590714D01*
X167280952Y-98590714D01*
X167185714Y-98638333D01*
X167138095Y-98733571D01*
X167138095Y-99257380D01*
X166661904Y-99257380D02*
X166661904Y-98257380D01*
X166566666Y-98876428D02*
X166280952Y-99257380D01*
X166280952Y-98590714D02*
X166661904Y-98971666D01*
X165900000Y-99209761D02*
X165804761Y-99257380D01*
X165614285Y-99257380D01*
X165519047Y-99209761D01*
X165471428Y-99114523D01*
X165471428Y-99066904D01*
X165519047Y-98971666D01*
X165614285Y-98924047D01*
X165757142Y-98924047D01*
X165852380Y-98876428D01*
X165900000Y-98781190D01*
X165900000Y-98733571D01*
X165852380Y-98638333D01*
X165757142Y-98590714D01*
X165614285Y-98590714D01*
X165519047Y-98638333D01*
X129566666Y-99638333D02*
X129614285Y-99590714D01*
X129709523Y-99447857D01*
X129757142Y-99352619D01*
X129804761Y-99209761D01*
X129852380Y-98971666D01*
X129852380Y-98781190D01*
X129804761Y-98543095D01*
X129757142Y-98400238D01*
X129709523Y-98305000D01*
X129614285Y-98162142D01*
X129566666Y-98114523D01*
X128852380Y-98733571D02*
X128709523Y-98781190D01*
X128661904Y-98828809D01*
X128614285Y-98924047D01*
X128614285Y-99066904D01*
X128661904Y-99162142D01*
X128709523Y-99209761D01*
X128804761Y-99257380D01*
X129185714Y-99257380D01*
X129185714Y-98257380D01*
X128852380Y-98257380D01*
X128757142Y-98305000D01*
X128709523Y-98352619D01*
X128661904Y-98447857D01*
X128661904Y-98543095D01*
X128709523Y-98638333D01*
X128757142Y-98685952D01*
X128852380Y-98733571D01*
X129185714Y-98733571D01*
X128185714Y-99257380D02*
X128185714Y-98257380D01*
X127614285Y-99257380D01*
X127614285Y-98257380D01*
X127138095Y-99257380D02*
X127138095Y-98257380D01*
X126566666Y-99257380D02*
X126995238Y-98685952D01*
X126566666Y-98257380D02*
X127138095Y-98828809D01*
X125852380Y-98257380D02*
X125852380Y-98971666D01*
X125900000Y-99114523D01*
X125995238Y-99209761D01*
X126138095Y-99257380D01*
X126233333Y-99257380D01*
X125376190Y-98257380D02*
X125376190Y-99066904D01*
X125328571Y-99162142D01*
X125280952Y-99209761D01*
X125185714Y-99257380D01*
X124995238Y-99257380D01*
X124900000Y-99209761D01*
X124852380Y-99162142D01*
X124804761Y-99066904D01*
X124804761Y-98257380D01*
X123852380Y-99257380D02*
X124328571Y-99257380D01*
X124328571Y-98257380D01*
X123328571Y-98257380D02*
X123233333Y-98257380D01*
X123138095Y-98305000D01*
X123090476Y-98352619D01*
X123042857Y-98447857D01*
X122995238Y-98638333D01*
X122995238Y-98876428D01*
X123042857Y-99066904D01*
X123090476Y-99162142D01*
X123138095Y-99209761D01*
X123233333Y-99257380D01*
X123328571Y-99257380D01*
X123423809Y-99209761D01*
X123471428Y-99162142D01*
X123519047Y-99066904D01*
X123566666Y-98876428D01*
X123566666Y-98638333D01*
X123519047Y-98447857D01*
X123471428Y-98352619D01*
X123423809Y-98305000D01*
X123328571Y-98257380D01*
X122376190Y-98257380D02*
X122280952Y-98257380D01*
X122185714Y-98305000D01*
X122138095Y-98352619D01*
X122090476Y-98447857D01*
X122042857Y-98638333D01*
X122042857Y-98876428D01*
X122090476Y-99066904D01*
X122138095Y-99162142D01*
X122185714Y-99209761D01*
X122280952Y-99257380D01*
X122376190Y-99257380D01*
X122471428Y-99209761D01*
X122519047Y-99162142D01*
X122566666Y-99066904D01*
X122614285Y-98876428D01*
X122614285Y-98638333D01*
X122566666Y-98447857D01*
X122519047Y-98352619D01*
X122471428Y-98305000D01*
X122376190Y-98257380D01*
X121090476Y-99257380D02*
X121661904Y-99257380D01*
X121376190Y-99257380D02*
X121376190Y-98257380D01*
X121471428Y-98400238D01*
X121566666Y-98495476D01*
X121661904Y-98543095D01*
X120757142Y-99638333D02*
X120709523Y-99590714D01*
X120614285Y-99447857D01*
X120566666Y-99352619D01*
X120519047Y-99209761D01*
X120471428Y-98971666D01*
X120471428Y-98781190D01*
X120519047Y-98543095D01*
X120566666Y-98400238D01*
X120614285Y-98305000D01*
X120709523Y-98162142D01*
X120757142Y-98114523D01*
X174804761Y-99867380D02*
X174138095Y-99867380D01*
X174804761Y-100867380D01*
X174138095Y-100867380D01*
X173328571Y-100867380D02*
X173328571Y-100343571D01*
X173376190Y-100248333D01*
X173471428Y-100200714D01*
X173661904Y-100200714D01*
X173757142Y-100248333D01*
X173328571Y-100819761D02*
X173423809Y-100867380D01*
X173661904Y-100867380D01*
X173757142Y-100819761D01*
X173804761Y-100724523D01*
X173804761Y-100629285D01*
X173757142Y-100534047D01*
X173661904Y-100486428D01*
X173423809Y-100486428D01*
X173328571Y-100438809D01*
X172423809Y-100819761D02*
X172519047Y-100867380D01*
X172709523Y-100867380D01*
X172804761Y-100819761D01*
X172852380Y-100772142D01*
X172900000Y-100676904D01*
X172900000Y-100391190D01*
X172852380Y-100295952D01*
X172804761Y-100248333D01*
X172709523Y-100200714D01*
X172519047Y-100200714D01*
X172423809Y-100248333D01*
X171566666Y-100819761D02*
X171661904Y-100867380D01*
X171852380Y-100867380D01*
X171947619Y-100819761D01*
X171995238Y-100772142D01*
X172042857Y-100676904D01*
X172042857Y-100391190D01*
X171995238Y-100295952D01*
X171947619Y-100248333D01*
X171852380Y-100200714D01*
X171661904Y-100200714D01*
X171566666Y-100248333D01*
X170709523Y-100867380D02*
X170709523Y-100343571D01*
X170757142Y-100248333D01*
X170852380Y-100200714D01*
X171042857Y-100200714D01*
X171138095Y-100248333D01*
X170709523Y-100819761D02*
X170804761Y-100867380D01*
X171042857Y-100867380D01*
X171138095Y-100819761D01*
X171185714Y-100724523D01*
X171185714Y-100629285D01*
X171138095Y-100534047D01*
X171042857Y-100486428D01*
X170804761Y-100486428D01*
X170709523Y-100438809D01*
X170233333Y-100867380D02*
X170233333Y-100200714D01*
X170233333Y-100391190D02*
X170185714Y-100295952D01*
X170138095Y-100248333D01*
X170042857Y-100200714D01*
X169947619Y-100200714D01*
X169709523Y-100200714D02*
X169471428Y-100867380D01*
X169233333Y-100200714D02*
X169471428Y-100867380D01*
X169566666Y-101105476D01*
X169614285Y-101153095D01*
X169709523Y-101200714D01*
X167757142Y-100343571D02*
X167614285Y-100391190D01*
X167566666Y-100438809D01*
X167519047Y-100534047D01*
X167519047Y-100676904D01*
X167566666Y-100772142D01*
X167614285Y-100819761D01*
X167709523Y-100867380D01*
X168090476Y-100867380D01*
X168090476Y-99867380D01*
X167757142Y-99867380D01*
X167661904Y-99915000D01*
X167614285Y-99962619D01*
X167566666Y-100057857D01*
X167566666Y-100153095D01*
X167614285Y-100248333D01*
X167661904Y-100295952D01*
X167757142Y-100343571D01*
X168090476Y-100343571D01*
X166709523Y-100819761D02*
X166804761Y-100867380D01*
X166995238Y-100867380D01*
X167090476Y-100819761D01*
X167138095Y-100724523D01*
X167138095Y-100343571D01*
X167090476Y-100248333D01*
X166995238Y-100200714D01*
X166804761Y-100200714D01*
X166709523Y-100248333D01*
X166661904Y-100343571D01*
X166661904Y-100438809D01*
X167138095Y-100534047D01*
X166233333Y-100867380D02*
X166233333Y-100200714D01*
X166233333Y-99867380D02*
X166280952Y-99915000D01*
X166233333Y-99962619D01*
X166185714Y-99915000D01*
X166233333Y-99867380D01*
X166233333Y-99962619D01*
X165614285Y-100867380D02*
X165709523Y-100819761D01*
X165757142Y-100724523D01*
X165757142Y-99867380D01*
X165233333Y-100867380D02*
X165233333Y-100200714D01*
X165233333Y-99867380D02*
X165280952Y-99915000D01*
X165233333Y-99962619D01*
X165185714Y-99915000D01*
X165233333Y-99867380D01*
X165233333Y-99962619D01*
X164757142Y-100200714D02*
X164757142Y-100867380D01*
X164757142Y-100295952D02*
X164709523Y-100248333D01*
X164614285Y-100200714D01*
X164471428Y-100200714D01*
X164376190Y-100248333D01*
X164328571Y-100343571D01*
X164328571Y-100867380D01*
X163900000Y-100819761D02*
X163804761Y-100867380D01*
X163614285Y-100867380D01*
X163519047Y-100819761D01*
X163471428Y-100724523D01*
X163471428Y-100676904D01*
X163519047Y-100581666D01*
X163614285Y-100534047D01*
X163757142Y-100534047D01*
X163852380Y-100486428D01*
X163900000Y-100391190D01*
X163900000Y-100343571D01*
X163852380Y-100248333D01*
X163757142Y-100200714D01*
X163614285Y-100200714D01*
X163519047Y-100248333D01*
X162900000Y-100867380D02*
X162995238Y-100819761D01*
X163042857Y-100772142D01*
X163090476Y-100676904D01*
X163090476Y-100391190D01*
X163042857Y-100295952D01*
X162995238Y-100248333D01*
X162900000Y-100200714D01*
X162757142Y-100200714D01*
X162661904Y-100248333D01*
X162614285Y-100295952D01*
X162566666Y-100391190D01*
X162566666Y-100676904D01*
X162614285Y-100772142D01*
X162661904Y-100819761D01*
X162757142Y-100867380D01*
X162900000Y-100867380D01*
X162138095Y-100867380D02*
X162138095Y-99867380D01*
X161709523Y-100867380D02*
X161709523Y-100343571D01*
X161757142Y-100248333D01*
X161852380Y-100200714D01*
X161995238Y-100200714D01*
X162090476Y-100248333D01*
X162138095Y-100295952D01*
X161233333Y-100200714D02*
X161233333Y-100867380D01*
X161233333Y-100295952D02*
X161185714Y-100248333D01*
X161090476Y-100200714D01*
X160947619Y-100200714D01*
X160852380Y-100248333D01*
X160804761Y-100343571D01*
X160804761Y-100867380D01*
X129566666Y-101248333D02*
X129614285Y-101200714D01*
X129709523Y-101057857D01*
X129757142Y-100962619D01*
X129804761Y-100819761D01*
X129852380Y-100581666D01*
X129852380Y-100391190D01*
X129804761Y-100153095D01*
X129757142Y-100010238D01*
X129709523Y-99915000D01*
X129614285Y-99772142D01*
X129566666Y-99724523D01*
X128852380Y-100343571D02*
X128709523Y-100391190D01*
X128661904Y-100438809D01*
X128614285Y-100534047D01*
X128614285Y-100676904D01*
X128661904Y-100772142D01*
X128709523Y-100819761D01*
X128804761Y-100867380D01*
X129185714Y-100867380D01*
X129185714Y-99867380D01*
X128852380Y-99867380D01*
X128757142Y-99915000D01*
X128709523Y-99962619D01*
X128661904Y-100057857D01*
X128661904Y-100153095D01*
X128709523Y-100248333D01*
X128757142Y-100295952D01*
X128852380Y-100343571D01*
X129185714Y-100343571D01*
X127709523Y-100867380D02*
X128185714Y-100867380D01*
X128185714Y-99867380D01*
X127376190Y-100867380D02*
X127376190Y-99867380D01*
X126804761Y-100867380D01*
X126804761Y-99867380D01*
X126423809Y-99867380D02*
X125757142Y-99867380D01*
X126423809Y-100867380D01*
X125757142Y-100867380D01*
X125423809Y-100581666D02*
X124947619Y-100581666D01*
X125519047Y-100867380D02*
X125185714Y-99867380D01*
X124852380Y-100867380D01*
X123947619Y-100772142D02*
X123995238Y-100819761D01*
X124138095Y-100867380D01*
X124233333Y-100867380D01*
X124376190Y-100819761D01*
X124471428Y-100724523D01*
X124519047Y-100629285D01*
X124566666Y-100438809D01*
X124566666Y-100295952D01*
X124519047Y-100105476D01*
X124471428Y-100010238D01*
X124376190Y-99915000D01*
X124233333Y-99867380D01*
X124138095Y-99867380D01*
X123995238Y-99915000D01*
X123947619Y-99962619D01*
X123328571Y-99867380D02*
X123233333Y-99867380D01*
X123138095Y-99915000D01*
X123090476Y-99962619D01*
X123042857Y-100057857D01*
X122995238Y-100248333D01*
X122995238Y-100486428D01*
X123042857Y-100676904D01*
X123090476Y-100772142D01*
X123138095Y-100819761D01*
X123233333Y-100867380D01*
X123328571Y-100867380D01*
X123423809Y-100819761D01*
X123471428Y-100772142D01*
X123519047Y-100676904D01*
X123566666Y-100486428D01*
X123566666Y-100248333D01*
X123519047Y-100057857D01*
X123471428Y-99962619D01*
X123423809Y-99915000D01*
X123328571Y-99867380D01*
X122376190Y-99867380D02*
X122280952Y-99867380D01*
X122185714Y-99915000D01*
X122138095Y-99962619D01*
X122090476Y-100057857D01*
X122042857Y-100248333D01*
X122042857Y-100486428D01*
X122090476Y-100676904D01*
X122138095Y-100772142D01*
X122185714Y-100819761D01*
X122280952Y-100867380D01*
X122376190Y-100867380D01*
X122471428Y-100819761D01*
X122519047Y-100772142D01*
X122566666Y-100676904D01*
X122614285Y-100486428D01*
X122614285Y-100248333D01*
X122566666Y-100057857D01*
X122519047Y-99962619D01*
X122471428Y-99915000D01*
X122376190Y-99867380D01*
X121090476Y-100867380D02*
X121661904Y-100867380D01*
X121376190Y-100867380D02*
X121376190Y-99867380D01*
X121471428Y-100010238D01*
X121566666Y-100105476D01*
X121661904Y-100153095D01*
X120757142Y-101248333D02*
X120709523Y-101200714D01*
X120614285Y-101057857D01*
X120566666Y-100962619D01*
X120519047Y-100819761D01*
X120471428Y-100581666D01*
X120471428Y-100391190D01*
X120519047Y-100153095D01*
X120566666Y-100010238D01*
X120614285Y-99915000D01*
X120709523Y-99772142D01*
X120757142Y-99724523D01*
%TO.C,U6*%
X123961904Y-87352380D02*
X123961904Y-88161904D01*
X123914285Y-88257142D01*
X123866666Y-88304761D01*
X123771428Y-88352380D01*
X123580952Y-88352380D01*
X123485714Y-88304761D01*
X123438095Y-88257142D01*
X123390476Y-88161904D01*
X123390476Y-87352380D01*
X122485714Y-87352380D02*
X122676190Y-87352380D01*
X122771428Y-87400000D01*
X122819047Y-87447619D01*
X122914285Y-87590476D01*
X122961904Y-87780952D01*
X122961904Y-88161904D01*
X122914285Y-88257142D01*
X122866666Y-88304761D01*
X122771428Y-88352380D01*
X122580952Y-88352380D01*
X122485714Y-88304761D01*
X122438095Y-88257142D01*
X122390476Y-88161904D01*
X122390476Y-87923809D01*
X122438095Y-87828571D01*
X122485714Y-87780952D01*
X122580952Y-87733333D01*
X122771428Y-87733333D01*
X122866666Y-87780952D01*
X122914285Y-87828571D01*
X122961904Y-87923809D01*
%TO.C,U5*%
X134561904Y-87152380D02*
X134561904Y-87961904D01*
X134514285Y-88057142D01*
X134466666Y-88104761D01*
X134371428Y-88152380D01*
X134180952Y-88152380D01*
X134085714Y-88104761D01*
X134038095Y-88057142D01*
X133990476Y-87961904D01*
X133990476Y-87152380D01*
X133038095Y-87152380D02*
X133514285Y-87152380D01*
X133561904Y-87628571D01*
X133514285Y-87580952D01*
X133419047Y-87533333D01*
X133180952Y-87533333D01*
X133085714Y-87580952D01*
X133038095Y-87628571D01*
X132990476Y-87723809D01*
X132990476Y-87961904D01*
X133038095Y-88057142D01*
X133085714Y-88104761D01*
X133180952Y-88152380D01*
X133419047Y-88152380D01*
X133514285Y-88104761D01*
X133561904Y-88057142D01*
D11*
%TO.C,U6*%
X121350000Y-79990000D02*
X125110000Y-79990000D01*
X119100000Y-86810000D02*
X125110000Y-86810000D01*
X125110000Y-86810000D02*
X125110000Y-85550000D01*
X125110000Y-79990000D02*
X125110000Y-81250000D01*
%TO.C,U5*%
X131950000Y-79790000D02*
X135710000Y-79790000D01*
X129700000Y-86610000D02*
X135710000Y-86610000D01*
X135710000Y-79790000D02*
X135710000Y-81050000D01*
X135710000Y-86610000D02*
X135710000Y-85350000D01*
%TD*%
M02*
