%TF.GenerationSoftware,KiCad,Pcbnew,(6.0.2)*%
%TF.CreationDate,2022-04-08T12:02:25+02:00*%
%TF.ProjectId,main,6d61696e-2e6b-4696-9361-645f70636258,rev?*%
%TF.SameCoordinates,Original*%
%TF.FileFunction,Copper,L2,Bot*%
%TF.FilePolarity,Positive*%
%FSLAX46Y46*%
G04 Gerber Fmt 4.6, Leading zero omitted, Abs format (unit mm)*
G04 Created by KiCad (PCBNEW (6.0.2)) date 2022-04-08 12:02:25*
%MOMM*%
%LPD*%
G01*
G04 APERTURE LIST*
%TA.AperFunction,ComponentPad*%
%ADD10R,1.700000X1.700000*%
%TD*%
%TA.AperFunction,ComponentPad*%
%ADD11O,1.700000X1.700000*%
%TD*%
%TA.AperFunction,ComponentPad*%
%ADD12C,4.466000*%
%TD*%
%TA.AperFunction,ComponentPad*%
%ADD13C,3.406000*%
%TD*%
%TA.AperFunction,SMDPad,CuDef*%
%ADD14R,2.000000X1.500000*%
%TD*%
%TA.AperFunction,SMDPad,CuDef*%
%ADD15R,2.000000X3.800000*%
%TD*%
%TA.AperFunction,ViaPad*%
%ADD16C,0.800000*%
%TD*%
%TA.AperFunction,Conductor*%
%ADD17C,0.508000*%
%TD*%
%TA.AperFunction,Conductor*%
%ADD18C,0.250000*%
%TD*%
%TA.AperFunction,Conductor*%
%ADD19C,0.812800*%
%TD*%
%TA.AperFunction,Conductor*%
%ADD20C,0.381000*%
%TD*%
%TA.AperFunction,Conductor*%
%ADD21C,0.254000*%
%TD*%
G04 APERTURE END LIST*
D10*
%TO.P,Je1,1,Pin_1*%
%TO.N,/PB15*%
X112750000Y-92250000D03*
%TD*%
%TO.P,J17,1,Pin_1*%
%TO.N,/PB14*%
X108250000Y-92250000D03*
%TD*%
%TO.P,J15,1,Pin_1*%
%TO.N,/PB0*%
X111750000Y-77250000D03*
%TD*%
%TO.P,J14,1,Pin_1*%
%TO.N,/PB13*%
X103000000Y-92200000D03*
%TD*%
%TO.P,J5,1,Pin_1*%
%TO.N,GND*%
X178364000Y-73406000D03*
%TD*%
%TO.P,J20,1,Pin_1*%
%TO.N,+3V0*%
X153300000Y-74200000D03*
%TD*%
%TO.P,J2,1,Pin_1*%
%TO.N,+3V0*%
X180340000Y-64600000D03*
D11*
%TO.P,J2,2,Pin_2*%
%TO.N,GND*%
X177800000Y-64600000D03*
%TO.P,J2,3,Pin_3*%
%TO.N,/VBAT*%
X175260000Y-64600000D03*
%TO.P,J2,4,Pin_4*%
%TO.N,/PC13*%
X172720000Y-64600000D03*
%TO.P,J2,5,Pin_5*%
%TO.N,/PC14*%
X170180000Y-64600000D03*
%TO.P,J2,6,Pin_6*%
%TO.N,/PC15*%
X167640000Y-64600000D03*
%TO.P,J2,7,Pin_7*%
%TO.N,/PF0*%
X165100000Y-64600000D03*
%TO.P,J2,8,Pin_8*%
%TO.N,/PF1*%
X162560000Y-64600000D03*
%TO.P,J2,9,Pin_9*%
%TO.N,GND*%
X160020000Y-64600000D03*
%TO.P,J2,10,Pin_10*%
%TO.N,/NRST*%
X157480000Y-64600000D03*
%TO.P,J2,11,Pin_11*%
%TO.N,/PC0*%
X154940000Y-64600000D03*
%TO.P,J2,12,Pin_12*%
%TO.N,/PC1*%
X152400000Y-64600000D03*
%TO.P,J2,13,Pin_13*%
%TO.N,/PC2*%
X149860000Y-64600000D03*
%TO.P,J2,14,Pin_14*%
%TO.N,/PC3*%
X147320000Y-64600000D03*
%TO.P,J2,15,Pin_15*%
%TO.N,/PA0*%
X144780000Y-64600000D03*
%TO.P,J2,16,Pin_16*%
%TO.N,/PA1*%
X142240000Y-64600000D03*
%TO.P,J2,17,Pin_17*%
%TO.N,/PA2*%
X139700000Y-64600000D03*
%TO.P,J2,18,Pin_18*%
%TO.N,/PA3*%
X137160000Y-64600000D03*
%TO.P,J2,19,Pin_19*%
%TO.N,/PF4*%
X134620000Y-64600000D03*
%TO.P,J2,20,Pin_20*%
%TO.N,/PF5*%
X132080000Y-64600000D03*
%TO.P,J2,21,Pin_21*%
%TO.N,/PA4*%
X129540000Y-64600000D03*
%TO.P,J2,22,Pin_22*%
%TO.N,/PA5*%
X127000000Y-64600000D03*
%TO.P,J2,23,Pin_23*%
%TO.N,/PA6*%
X124460000Y-64600000D03*
%TO.P,J2,24,Pin_24*%
%TO.N,/PA7*%
X121920000Y-64600000D03*
%TO.P,J2,25,Pin_25*%
%TO.N,/PC4*%
X119380000Y-64600000D03*
%TO.P,J2,26,Pin_26*%
%TO.N,/PC5*%
X116840000Y-64600000D03*
%TO.P,J2,27,Pin_27*%
%TO.N,/PB0*%
X114300000Y-64600000D03*
%TO.P,J2,28,Pin_28*%
%TO.N,/PB1*%
X111760000Y-64600000D03*
%TO.P,J2,29,Pin_29*%
%TO.N,/PB2*%
X109220000Y-64600000D03*
%TO.P,J2,30,Pin_30*%
%TO.N,/PB10*%
X106680000Y-64600000D03*
%TO.P,J2,31,Pin_31*%
%TO.N,/PB11*%
X104140000Y-64600000D03*
%TO.P,J2,32,Pin_32*%
%TO.N,/PB12*%
X101600000Y-64600000D03*
%TO.P,J2,33,Pin_33*%
%TO.N,GND*%
X99060000Y-64600000D03*
%TD*%
D10*
%TO.P,J4,1,Pin_1*%
%TO.N,/Power/USB_D-*%
X174244000Y-73406000D03*
%TD*%
%TO.P,J1,1,Pin_1*%
%TO.N,+3V0*%
X180340000Y-54440000D03*
D11*
%TO.P,J1,2,Pin_2*%
%TO.N,GND*%
X177800000Y-54440000D03*
%TO.P,J1,3,Pin_3*%
%TO.N,/VBAT*%
X175260000Y-54440000D03*
%TO.P,J1,4,Pin_4*%
%TO.N,/PC13*%
X172720000Y-54440000D03*
%TO.P,J1,5,Pin_5*%
%TO.N,/PC14*%
X170180000Y-54440000D03*
%TO.P,J1,6,Pin_6*%
%TO.N,/PC15*%
X167640000Y-54440000D03*
%TO.P,J1,7,Pin_7*%
%TO.N,/PF0*%
X165100000Y-54440000D03*
%TO.P,J1,8,Pin_8*%
%TO.N,/PF1*%
X162560000Y-54440000D03*
%TO.P,J1,9,Pin_9*%
%TO.N,GND*%
X160020000Y-54440000D03*
%TO.P,J1,10,Pin_10*%
%TO.N,/NRST*%
X157480000Y-54440000D03*
%TO.P,J1,11,Pin_11*%
%TO.N,/PC0*%
X154940000Y-54440000D03*
%TO.P,J1,12,Pin_12*%
%TO.N,/PC1*%
X152400000Y-54440000D03*
%TO.P,J1,13,Pin_13*%
%TO.N,/PC2*%
X149860000Y-54440000D03*
%TO.P,J1,14,Pin_14*%
%TO.N,/PC3*%
X147320000Y-54440000D03*
%TO.P,J1,15,Pin_15*%
%TO.N,/PA0*%
X144780000Y-54440000D03*
%TO.P,J1,16,Pin_16*%
%TO.N,/PA1*%
X142240000Y-54440000D03*
%TO.P,J1,17,Pin_17*%
%TO.N,/PA2*%
X139700000Y-54440000D03*
%TO.P,J1,18,Pin_18*%
%TO.N,/PA3*%
X137160000Y-54440000D03*
%TO.P,J1,19,Pin_19*%
%TO.N,/PF4*%
X134620000Y-54440000D03*
%TO.P,J1,20,Pin_20*%
%TO.N,/PF5*%
X132080000Y-54440000D03*
%TO.P,J1,21,Pin_21*%
%TO.N,/PA4*%
X129540000Y-54440000D03*
%TO.P,J1,22,Pin_22*%
%TO.N,/PA5*%
X127000000Y-54440000D03*
%TO.P,J1,23,Pin_23*%
%TO.N,/PA6*%
X124460000Y-54440000D03*
%TO.P,J1,24,Pin_24*%
%TO.N,/PA7*%
X121920000Y-54440000D03*
%TO.P,J1,25,Pin_25*%
%TO.N,/PC4*%
X119380000Y-54440000D03*
%TO.P,J1,26,Pin_26*%
%TO.N,/PC5*%
X116840000Y-54440000D03*
%TO.P,J1,27,Pin_27*%
%TO.N,/PB0*%
X114300000Y-54440000D03*
%TO.P,J1,28,Pin_28*%
%TO.N,/PB1*%
X111760000Y-54440000D03*
%TO.P,J1,29,Pin_29*%
%TO.N,/PB2*%
X109220000Y-54440000D03*
%TO.P,J1,30,Pin_30*%
%TO.N,/PB10*%
X106680000Y-54440000D03*
%TO.P,J1,31,Pin_31*%
%TO.N,/PB11*%
X104140000Y-54440000D03*
%TO.P,J1,32,Pin_32*%
%TO.N,/PB12*%
X101600000Y-54440000D03*
%TO.P,J1,33,Pin_33*%
%TO.N,GND*%
X99060000Y-54440000D03*
%TD*%
D10*
%TO.P,J16,1,Pin_1*%
%TO.N,/PB12*%
X111400000Y-83800000D03*
%TD*%
%TO.P,J11,1,Pin_1*%
%TO.N,Net-(C4-Pad1)*%
X157400000Y-78200000D03*
%TD*%
D12*
%TO.P,BT1,P$1*%
%TO.N,N/C*%
X169100000Y-122750000D03*
%TO.P,BT1,P$2*%
X113900000Y-138750000D03*
D13*
%TO.P,BT1,P$3*%
X105570000Y-122750000D03*
%TD*%
D10*
%TO.P,J10,1,Pin_1*%
%TO.N,+5V*%
X142100000Y-94500000D03*
%TD*%
%TO.P,J19,1,Pin_1*%
%TO.N,/PC5*%
X121000000Y-77250000D03*
%TD*%
%TO.P,J8,1,Pin_1*%
%TO.N,+5V*%
X180340000Y-115400000D03*
D11*
%TO.P,J8,2,Pin_2*%
%TO.N,GND*%
X177800000Y-115400000D03*
%TO.P,J8,3,Pin_3*%
%TO.N,/PB9*%
X175260000Y-115400000D03*
%TO.P,J8,4,Pin_4*%
%TO.N,/PB8*%
X172720000Y-115400000D03*
%TO.P,J8,5,Pin_5*%
%TO.N,+3V0*%
X170180000Y-115400000D03*
%TO.P,J8,6,Pin_6*%
%TO.N,/BOOT*%
X167640000Y-115400000D03*
%TO.P,J8,7,Pin_7*%
%TO.N,/PB7*%
X165100000Y-115400000D03*
%TO.P,J8,8,Pin_8*%
%TO.N,/PB6*%
X162560000Y-115400000D03*
%TO.P,J8,9,Pin_9*%
%TO.N,/PB5*%
X160020000Y-115400000D03*
%TO.P,J8,10,Pin_10*%
%TO.N,/PB4*%
X157480000Y-115400000D03*
%TO.P,J8,11,Pin_11*%
%TO.N,/PB3*%
X154940000Y-115400000D03*
%TO.P,J8,12,Pin_12*%
%TO.N,/PD2*%
X152400000Y-115400000D03*
%TO.P,J8,13,Pin_13*%
%TO.N,/PC12*%
X149860000Y-115400000D03*
%TO.P,J8,14,Pin_14*%
%TO.N,/PC11*%
X147320000Y-115400000D03*
%TO.P,J8,15,Pin_15*%
%TO.N,/PC10*%
X144780000Y-115400000D03*
%TO.P,J8,16,Pin_16*%
%TO.N,/PA15*%
X142240000Y-115400000D03*
%TO.P,J8,17,Pin_17*%
%TO.N,/PA14*%
X139700000Y-115400000D03*
%TO.P,J8,18,Pin_18*%
%TO.N,/PF7*%
X137160000Y-115400000D03*
%TO.P,J8,19,Pin_19*%
%TO.N,/PF6*%
X134620000Y-115400000D03*
%TO.P,J8,20,Pin_20*%
%TO.N,/PA13*%
X132080000Y-115400000D03*
%TO.P,J8,21,Pin_21*%
%TO.N,/PA12*%
X129540000Y-115400000D03*
%TO.P,J8,22,Pin_22*%
%TO.N,/PA11*%
X127000000Y-115400000D03*
%TO.P,J8,23,Pin_23*%
%TO.N,/PA10*%
X124460000Y-115400000D03*
%TO.P,J8,24,Pin_24*%
%TO.N,/PA9*%
X121920000Y-115400000D03*
%TO.P,J8,25,Pin_25*%
%TO.N,/PA8*%
X119380000Y-115400000D03*
%TO.P,J8,26,Pin_26*%
%TO.N,/PC9*%
X116840000Y-115400000D03*
%TO.P,J8,27,Pin_27*%
%TO.N,/PC8*%
X114300000Y-115400000D03*
%TO.P,J8,28,Pin_28*%
%TO.N,/PC7*%
X111760000Y-115400000D03*
%TO.P,J8,29,Pin_29*%
%TO.N,/PC6*%
X109220000Y-115400000D03*
%TO.P,J8,30,Pin_30*%
%TO.N,/PB15*%
X106680000Y-115400000D03*
%TO.P,J8,31,Pin_31*%
%TO.N,/PB14*%
X104140000Y-115400000D03*
%TO.P,J8,32,Pin_32*%
%TO.N,/PB13*%
X101600000Y-115400000D03*
%TO.P,J8,33,Pin_33*%
%TO.N,GND*%
X99060000Y-115400000D03*
%TD*%
D10*
%TO.P,J13,1,Pin_1*%
%TO.N,Power_Current_Debug_In_1*%
X185500000Y-94100000D03*
%TD*%
%TO.P,J12,1,Pin_1*%
%TO.N,Power_Current_Debug_Out_1*%
X133600000Y-90500000D03*
%TD*%
%TO.P,J7,1,Pin_1*%
%TO.N,+5V*%
X180340000Y-105240000D03*
D11*
%TO.P,J7,2,Pin_2*%
%TO.N,GND*%
X177800000Y-105240000D03*
%TO.P,J7,3,Pin_3*%
%TO.N,/PB9*%
X175260000Y-105240000D03*
%TO.P,J7,4,Pin_4*%
%TO.N,/PB8*%
X172720000Y-105240000D03*
%TO.P,J7,5,Pin_5*%
%TO.N,+3V0*%
X170180000Y-105240000D03*
%TO.P,J7,6,Pin_6*%
%TO.N,/BOOT*%
X167640000Y-105240000D03*
%TO.P,J7,7,Pin_7*%
%TO.N,/PB7*%
X165100000Y-105240000D03*
%TO.P,J7,8,Pin_8*%
%TO.N,/PB6*%
X162560000Y-105240000D03*
%TO.P,J7,9,Pin_9*%
%TO.N,/PB5*%
X160020000Y-105240000D03*
%TO.P,J7,10,Pin_10*%
%TO.N,/PB4*%
X157480000Y-105240000D03*
%TO.P,J7,11,Pin_11*%
%TO.N,/PB3*%
X154940000Y-105240000D03*
%TO.P,J7,12,Pin_12*%
%TO.N,/PD2*%
X152400000Y-105240000D03*
%TO.P,J7,13,Pin_13*%
%TO.N,/PC12*%
X149860000Y-105240000D03*
%TO.P,J7,14,Pin_14*%
%TO.N,/PC11*%
X147320000Y-105240000D03*
%TO.P,J7,15,Pin_15*%
%TO.N,/PC10*%
X144780000Y-105240000D03*
%TO.P,J7,16,Pin_16*%
%TO.N,/PA15*%
X142240000Y-105240000D03*
%TO.P,J7,17,Pin_17*%
%TO.N,/PA14*%
X139700000Y-105240000D03*
%TO.P,J7,18,Pin_18*%
%TO.N,/PF7*%
X137160000Y-105240000D03*
%TO.P,J7,19,Pin_19*%
%TO.N,/PF6*%
X134620000Y-105240000D03*
%TO.P,J7,20,Pin_20*%
%TO.N,/PA13*%
X132080000Y-105240000D03*
%TO.P,J7,21,Pin_21*%
%TO.N,/PA12*%
X129540000Y-105240000D03*
%TO.P,J7,22,Pin_22*%
%TO.N,/PA11*%
X127000000Y-105240000D03*
%TO.P,J7,23,Pin_23*%
%TO.N,/PA10*%
X124460000Y-105240000D03*
%TO.P,J7,24,Pin_24*%
%TO.N,/PA9*%
X121920000Y-105240000D03*
%TO.P,J7,25,Pin_25*%
%TO.N,/PA8*%
X119380000Y-105240000D03*
%TO.P,J7,26,Pin_26*%
%TO.N,/PC9*%
X116840000Y-105240000D03*
%TO.P,J7,27,Pin_27*%
%TO.N,/PC8*%
X114300000Y-105240000D03*
%TO.P,J7,28,Pin_28*%
%TO.N,/PC7*%
X111760000Y-105240000D03*
%TO.P,J7,29,Pin_29*%
%TO.N,/PC6*%
X109220000Y-105240000D03*
%TO.P,J7,30,Pin_30*%
%TO.N,/PB15*%
X106680000Y-105240000D03*
%TO.P,J7,31,Pin_31*%
%TO.N,/PB14*%
X104140000Y-105240000D03*
%TO.P,J7,32,Pin_32*%
%TO.N,/PB13*%
X101600000Y-105240000D03*
%TO.P,J7,33,Pin_33*%
%TO.N,GND*%
X99060000Y-105240000D03*
%TD*%
D10*
%TO.P,J18,1,Pin_1*%
%TO.N,/PB1*%
X107000000Y-77250000D03*
%TD*%
%TO.P,J3,1,Pin_1*%
%TO.N,/Power/USB_D+*%
X170053000Y-73406000D03*
%TD*%
D14*
%TO.P,U6,1,GND*%
%TO.N,GND*%
X120050000Y-85700000D03*
D15*
%TO.P,U6,2,VO*%
%TO.N,Vdd_io*%
X126350000Y-83400000D03*
D14*
X120050000Y-83400000D03*
%TO.P,U6,3,VI*%
%TO.N,+3V0*%
X120050000Y-81100000D03*
%TD*%
%TO.P,U5,1,GND*%
%TO.N,GND*%
X130650000Y-85500000D03*
%TO.P,U5,2,VO*%
%TO.N,Vdd*%
X130650000Y-83200000D03*
D15*
X136950000Y-83200000D03*
D14*
%TO.P,U5,3,VI*%
%TO.N,+3V0*%
X130650000Y-80900000D03*
%TD*%
D16*
%TO.N,+3V0*%
X166878000Y-77343000D03*
X128400000Y-79800000D03*
%TO.N,GND*%
X132000000Y-74800000D03*
X117800000Y-73400000D03*
X149600000Y-97800000D03*
X139200000Y-96000000D03*
X159385000Y-90678000D03*
X161036000Y-87630000D03*
X170000000Y-98400000D03*
X143600000Y-97800000D03*
X133286500Y-68643500D03*
X177600000Y-91600000D03*
X175200000Y-98200000D03*
X132200000Y-79000000D03*
X136600000Y-96000000D03*
%TO.N,/PB12*%
X108800000Y-83800000D03*
X102250000Y-77250000D03*
X116000000Y-85600000D03*
%TO.N,+5V*%
X162200000Y-102600000D03*
X141600000Y-97800000D03*
X159512000Y-99568000D03*
%TO.N,/PB7*%
X165600000Y-89400000D03*
%TO.N,/PB6*%
X164200000Y-89400000D03*
%TO.N,Net-(R8-Pad2)*%
X154800000Y-70000000D03*
X151046484Y-73153516D03*
%TO.N,Vdd*%
X128400000Y-82600000D03*
%TO.N,Vdd_io*%
X117800000Y-80800000D03*
%TD*%
D17*
%TO.N,+3V0*%
X166878000Y-77343000D02*
X167000000Y-77465000D01*
X167000000Y-77465000D02*
X167000000Y-102060000D01*
X127900000Y-80300000D02*
X120850000Y-80300000D01*
X128400000Y-79800000D02*
X129550000Y-79800000D01*
X129550000Y-79800000D02*
X130650000Y-80900000D01*
X167000000Y-102060000D02*
X170180000Y-105240000D01*
X120850000Y-80300000D02*
X120050000Y-81100000D01*
X128400000Y-79800000D02*
X127900000Y-80300000D01*
%TO.N,GND*%
X129400000Y-86600000D02*
X120950000Y-86600000D01*
X130600000Y-73400000D02*
X132000000Y-74800000D01*
X120950000Y-86600000D02*
X120050000Y-85700000D01*
X132200000Y-79000000D02*
X132200000Y-84200000D01*
X149600000Y-97800000D02*
X143600000Y-97800000D01*
X132200000Y-84200000D02*
X130900000Y-85500000D01*
X170000000Y-98400000D02*
X175000000Y-98400000D01*
X177600000Y-95800000D02*
X175200000Y-98200000D01*
X130650000Y-85500000D02*
X130396489Y-85753511D01*
X130246489Y-85753511D02*
X129400000Y-86600000D01*
X130900000Y-85500000D02*
X130650000Y-85500000D01*
X177600000Y-91600000D02*
X177600000Y-95800000D01*
X133286500Y-68643500D02*
X132000000Y-69930000D01*
D18*
X136600000Y-96000000D02*
X139200000Y-96000000D01*
D17*
X161036000Y-87630000D02*
X159385000Y-89281000D01*
X159385000Y-89281000D02*
X159385000Y-90678000D01*
X117800000Y-73400000D02*
X130600000Y-73400000D01*
X130396489Y-85753511D02*
X130246489Y-85753511D01*
X132000000Y-69930000D02*
X132000000Y-74800000D01*
X132000000Y-74800000D02*
X132000000Y-78800000D01*
X132000000Y-78800000D02*
X132200000Y-79000000D01*
X175000000Y-98400000D02*
X175200000Y-98200000D01*
D18*
%TO.N,/PB12*%
X106300000Y-84100000D02*
X108500000Y-84100000D01*
X106300000Y-84100000D02*
X102250000Y-80050000D01*
X116000000Y-85600000D02*
X107800000Y-85600000D01*
X102250000Y-80050000D02*
X102250000Y-77250000D01*
X108500000Y-84100000D02*
X108800000Y-83800000D01*
X107800000Y-85600000D02*
X106300000Y-84100000D01*
D19*
%TO.N,+5V*%
X159512000Y-99568000D02*
X159512000Y-102584000D01*
X141600000Y-97800000D02*
X146400000Y-102600000D01*
X146400000Y-102600000D02*
X159496000Y-102600000D01*
X159496000Y-102600000D02*
X162200000Y-102600000D01*
X159512000Y-102584000D02*
X159496000Y-102600000D01*
D17*
%TO.N,/PB7*%
X165600000Y-103800000D02*
X165600000Y-89400000D01*
X165100000Y-105240000D02*
X165100000Y-104300000D01*
X165100000Y-104300000D02*
X165600000Y-103800000D01*
%TO.N,/PB6*%
X162560000Y-105240000D02*
X164200000Y-103600000D01*
X164200000Y-103600000D02*
X164200000Y-89400000D01*
D20*
%TO.N,Net-(R8-Pad2)*%
X154200000Y-70000000D02*
X154800000Y-70000000D01*
X151046484Y-73153516D02*
X154200000Y-70000000D01*
D17*
%TO.N,Vdd*%
X130050000Y-82600000D02*
X130650000Y-83200000D01*
X128400000Y-82600000D02*
X130050000Y-82600000D01*
D21*
%TO.N,Vdd_io*%
X117800000Y-81150000D02*
X117800000Y-80800000D01*
X120050000Y-83400000D02*
X117800000Y-81150000D01*
%TD*%
M02*
