%TF.GenerationSoftware,KiCad,Pcbnew,(6.0.2)*%
%TF.CreationDate,2022-04-08T18:43:51+02:00*%
%TF.ProjectId,main,6d61696e-2e6b-4696-9361-645f70636258,rev?*%
%TF.SameCoordinates,Original*%
%TF.FileFunction,Legend,Top*%
%TF.FilePolarity,Positive*%
%FSLAX46Y46*%
G04 Gerber Fmt 4.6, Leading zero omitted, Abs format (unit mm)*
G04 Created by KiCad (PCBNEW (6.0.2)) date 2022-04-08 18:43:51*
%MOMM*%
%LPD*%
G01*
G04 APERTURE LIST*
%ADD10C,0.100000*%
%ADD11C,0.150000*%
%ADD12C,0.300000*%
%ADD13C,0.118517*%
%ADD14C,0.098425*%
%ADD15C,0.254000*%
%ADD16C,0.127000*%
%ADD17C,0.120000*%
%ADD18C,0.200000*%
G04 APERTURE END LIST*
D10*
X173400000Y-90800000D02*
X184200000Y-90800000D01*
X184200000Y-90800000D02*
X184200000Y-78800000D01*
X184200000Y-78800000D02*
X173400000Y-78800000D01*
X173400000Y-78800000D02*
X173400000Y-90800000D01*
D11*
X100742857Y-136814285D02*
X98457142Y-136814285D01*
D12*
X181504761Y-78223809D02*
X183123809Y-78223809D01*
X183314285Y-78128571D01*
X183409523Y-78033333D01*
X183504761Y-77842857D01*
X183504761Y-77461904D01*
X183409523Y-77271428D01*
X183314285Y-77176190D01*
X183123809Y-77080952D01*
X181504761Y-77080952D01*
X183409523Y-76223809D02*
X183504761Y-75938095D01*
X183504761Y-75461904D01*
X183409523Y-75271428D01*
X183314285Y-75176190D01*
X183123809Y-75080952D01*
X182933333Y-75080952D01*
X182742857Y-75176190D01*
X182647619Y-75271428D01*
X182552380Y-75461904D01*
X182457142Y-75842857D01*
X182361904Y-76033333D01*
X182266666Y-76128571D01*
X182076190Y-76223809D01*
X181885714Y-76223809D01*
X181695238Y-76128571D01*
X181600000Y-76033333D01*
X181504761Y-75842857D01*
X181504761Y-75366666D01*
X181600000Y-75080952D01*
X182457142Y-73557142D02*
X182552380Y-73271428D01*
X182647619Y-73176190D01*
X182838095Y-73080952D01*
X183123809Y-73080952D01*
X183314285Y-73176190D01*
X183409523Y-73271428D01*
X183504761Y-73461904D01*
X183504761Y-74223809D01*
X181504761Y-74223809D01*
X181504761Y-73557142D01*
X181600000Y-73366666D01*
X181695238Y-73271428D01*
X181885714Y-73176190D01*
X182076190Y-73176190D01*
X182266666Y-73271428D01*
X182361904Y-73366666D01*
X182457142Y-73557142D01*
X182457142Y-74223809D01*
D11*
X184142857Y-137014285D02*
X181857142Y-137014285D01*
X183000000Y-138157142D02*
X183000000Y-135871428D01*
D13*
%TO.C,C9*%
X116920988Y-77569309D02*
X116898414Y-77591884D01*
X116830690Y-77614458D01*
X116785541Y-77614458D01*
X116717817Y-77591884D01*
X116672668Y-77546735D01*
X116650093Y-77501585D01*
X116627518Y-77411287D01*
X116627518Y-77343563D01*
X116650093Y-77253264D01*
X116672668Y-77208115D01*
X116717817Y-77162966D01*
X116785541Y-77140391D01*
X116830690Y-77140391D01*
X116898414Y-77162966D01*
X116920988Y-77185541D01*
X117146735Y-77614458D02*
X117237033Y-77614458D01*
X117282182Y-77591884D01*
X117304757Y-77569309D01*
X117349906Y-77501585D01*
X117372481Y-77411287D01*
X117372481Y-77230690D01*
X117349906Y-77185541D01*
X117327331Y-77162966D01*
X117282182Y-77140391D01*
X117191884Y-77140391D01*
X117146735Y-77162966D01*
X117124160Y-77185541D01*
X117101585Y-77230690D01*
X117101585Y-77343563D01*
X117124160Y-77388712D01*
X117146735Y-77411287D01*
X117191884Y-77433861D01*
X117282182Y-77433861D01*
X117327331Y-77411287D01*
X117349906Y-77388712D01*
X117372481Y-77343563D01*
D14*
%TO.C,C3*%
X127940607Y-90825616D02*
X127959355Y-90844364D01*
X127978102Y-90900607D01*
X127978102Y-90938102D01*
X127959355Y-90994345D01*
X127921859Y-91031841D01*
X127884364Y-91050588D01*
X127809373Y-91069336D01*
X127753130Y-91069336D01*
X127678140Y-91050588D01*
X127640644Y-91031841D01*
X127603149Y-90994345D01*
X127584401Y-90938102D01*
X127584401Y-90900607D01*
X127603149Y-90844364D01*
X127621897Y-90825616D01*
X127584401Y-90694383D02*
X127584401Y-90450663D01*
X127734383Y-90581897D01*
X127734383Y-90525654D01*
X127753130Y-90488158D01*
X127771878Y-90469411D01*
X127809373Y-90450663D01*
X127903112Y-90450663D01*
X127940607Y-90469411D01*
X127959355Y-90488158D01*
X127978102Y-90525654D01*
X127978102Y-90638140D01*
X127959355Y-90675635D01*
X127940607Y-90694383D01*
D11*
%TO.C,Je1*%
X111988095Y-88932380D02*
X111988095Y-89646666D01*
X111940476Y-89789523D01*
X111845238Y-89884761D01*
X111702380Y-89932380D01*
X111607142Y-89932380D01*
X112845238Y-89884761D02*
X112750000Y-89932380D01*
X112559523Y-89932380D01*
X112464285Y-89884761D01*
X112416666Y-89789523D01*
X112416666Y-89408571D01*
X112464285Y-89313333D01*
X112559523Y-89265714D01*
X112750000Y-89265714D01*
X112845238Y-89313333D01*
X112892857Y-89408571D01*
X112892857Y-89503809D01*
X112416666Y-89599047D01*
X113845238Y-89932380D02*
X113273809Y-89932380D01*
X113559523Y-89932380D02*
X113559523Y-88932380D01*
X113464285Y-89075238D01*
X113369047Y-89170476D01*
X113273809Y-89218095D01*
D13*
%TO.C,C6*%
X121469309Y-84679011D02*
X121491884Y-84701585D01*
X121514458Y-84769309D01*
X121514458Y-84814458D01*
X121491884Y-84882182D01*
X121446735Y-84927331D01*
X121401585Y-84949906D01*
X121311287Y-84972481D01*
X121243563Y-84972481D01*
X121153264Y-84949906D01*
X121108115Y-84927331D01*
X121062966Y-84882182D01*
X121040391Y-84814458D01*
X121040391Y-84769309D01*
X121062966Y-84701585D01*
X121085541Y-84679011D01*
X121040391Y-84272668D02*
X121040391Y-84362966D01*
X121062966Y-84408115D01*
X121085541Y-84430690D01*
X121153264Y-84475839D01*
X121243563Y-84498414D01*
X121424160Y-84498414D01*
X121469309Y-84475839D01*
X121491884Y-84453264D01*
X121514458Y-84408115D01*
X121514458Y-84317817D01*
X121491884Y-84272668D01*
X121469309Y-84250093D01*
X121424160Y-84227518D01*
X121311287Y-84227518D01*
X121266138Y-84250093D01*
X121243563Y-84272668D01*
X121220988Y-84317817D01*
X121220988Y-84408115D01*
X121243563Y-84453264D01*
X121266138Y-84475839D01*
X121311287Y-84498414D01*
D11*
%TO.C,J17*%
X107440476Y-88932380D02*
X107440476Y-89646666D01*
X107392857Y-89789523D01*
X107297619Y-89884761D01*
X107154761Y-89932380D01*
X107059523Y-89932380D01*
X108440476Y-89932380D02*
X107869047Y-89932380D01*
X108154761Y-89932380D02*
X108154761Y-88932380D01*
X108059523Y-89075238D01*
X107964285Y-89170476D01*
X107869047Y-89218095D01*
X108773809Y-88932380D02*
X109440476Y-88932380D01*
X109011904Y-89932380D01*
%TO.C,R1*%
X151033333Y-93952380D02*
X150700000Y-93476190D01*
X150461904Y-93952380D02*
X150461904Y-92952380D01*
X150842857Y-92952380D01*
X150938095Y-93000000D01*
X150985714Y-93047619D01*
X151033333Y-93142857D01*
X151033333Y-93285714D01*
X150985714Y-93380952D01*
X150938095Y-93428571D01*
X150842857Y-93476190D01*
X150461904Y-93476190D01*
X151985714Y-93952380D02*
X151414285Y-93952380D01*
X151700000Y-93952380D02*
X151700000Y-92952380D01*
X151604761Y-93095238D01*
X151509523Y-93190476D01*
X151414285Y-93238095D01*
%TO.C,J15*%
X111590476Y-74252380D02*
X111590476Y-74966666D01*
X111542857Y-75109523D01*
X111447619Y-75204761D01*
X111304761Y-75252380D01*
X111209523Y-75252380D01*
X112590476Y-75252380D02*
X112019047Y-75252380D01*
X112304761Y-75252380D02*
X112304761Y-74252380D01*
X112209523Y-74395238D01*
X112114285Y-74490476D01*
X112019047Y-74538095D01*
X113495238Y-74252380D02*
X113019047Y-74252380D01*
X112971428Y-74728571D01*
X113019047Y-74680952D01*
X113114285Y-74633333D01*
X113352380Y-74633333D01*
X113447619Y-74680952D01*
X113495238Y-74728571D01*
X113542857Y-74823809D01*
X113542857Y-75061904D01*
X113495238Y-75157142D01*
X113447619Y-75204761D01*
X113352380Y-75252380D01*
X113114285Y-75252380D01*
X113019047Y-75204761D01*
X112971428Y-75157142D01*
%TO.C,J14*%
X102190476Y-88882380D02*
X102190476Y-89596666D01*
X102142857Y-89739523D01*
X102047619Y-89834761D01*
X101904761Y-89882380D01*
X101809523Y-89882380D01*
X103190476Y-89882380D02*
X102619047Y-89882380D01*
X102904761Y-89882380D02*
X102904761Y-88882380D01*
X102809523Y-89025238D01*
X102714285Y-89120476D01*
X102619047Y-89168095D01*
X104047619Y-89215714D02*
X104047619Y-89882380D01*
X103809523Y-88834761D02*
X103571428Y-89549047D01*
X104190476Y-89549047D01*
%TO.C,J5*%
X178030666Y-70088380D02*
X178030666Y-70802666D01*
X177983047Y-70945523D01*
X177887809Y-71040761D01*
X177744952Y-71088380D01*
X177649714Y-71088380D01*
X178983047Y-70088380D02*
X178506857Y-70088380D01*
X178459238Y-70564571D01*
X178506857Y-70516952D01*
X178602095Y-70469333D01*
X178840190Y-70469333D01*
X178935428Y-70516952D01*
X178983047Y-70564571D01*
X179030666Y-70659809D01*
X179030666Y-70897904D01*
X178983047Y-70993142D01*
X178935428Y-71040761D01*
X178840190Y-71088380D01*
X178602095Y-71088380D01*
X178506857Y-71040761D01*
X178459238Y-70993142D01*
%TO.C,C5*%
X124624971Y-83504986D02*
X124654968Y-83534983D01*
X124684964Y-83624971D01*
X124684964Y-83684964D01*
X124654968Y-83774952D01*
X124594975Y-83834945D01*
X124534983Y-83864941D01*
X124414998Y-83894937D01*
X124325009Y-83894937D01*
X124205024Y-83864941D01*
X124145031Y-83834945D01*
X124085039Y-83774952D01*
X124055043Y-83684964D01*
X124055043Y-83624971D01*
X124085039Y-83534983D01*
X124115035Y-83504986D01*
X124055043Y-82935058D02*
X124055043Y-83235020D01*
X124355005Y-83265016D01*
X124325009Y-83235020D01*
X124295013Y-83175028D01*
X124295013Y-83025047D01*
X124325009Y-82965054D01*
X124355005Y-82935058D01*
X124414998Y-82905062D01*
X124564979Y-82905062D01*
X124624971Y-82935058D01*
X124654968Y-82965054D01*
X124684964Y-83025047D01*
X124684964Y-83175028D01*
X124654968Y-83235020D01*
X124624971Y-83265016D01*
%TO.C,U3*%
X172052380Y-93361904D02*
X172861904Y-93361904D01*
X172957142Y-93314285D01*
X173004761Y-93266666D01*
X173052380Y-93171428D01*
X173052380Y-92980952D01*
X173004761Y-92885714D01*
X172957142Y-92838095D01*
X172861904Y-92790476D01*
X172052380Y-92790476D01*
X172052380Y-92409523D02*
X172052380Y-91790476D01*
X172433333Y-92123809D01*
X172433333Y-91980952D01*
X172480952Y-91885714D01*
X172528571Y-91838095D01*
X172623809Y-91790476D01*
X172861904Y-91790476D01*
X172957142Y-91838095D01*
X173004761Y-91885714D01*
X173052380Y-91980952D01*
X173052380Y-92266666D01*
X173004761Y-92361904D01*
X172957142Y-92409523D01*
%TO.C,U7*%
X140352380Y-76661904D02*
X141161904Y-76661904D01*
X141257142Y-76614285D01*
X141304761Y-76566666D01*
X141352380Y-76471428D01*
X141352380Y-76280952D01*
X141304761Y-76185714D01*
X141257142Y-76138095D01*
X141161904Y-76090476D01*
X140352380Y-76090476D01*
X140352380Y-75709523D02*
X140352380Y-75042857D01*
X141352380Y-75471428D01*
D15*
%TO.C,Q3*%
X181879047Y-92495476D02*
X181758095Y-92435000D01*
X181637142Y-92314047D01*
X181455714Y-92132619D01*
X181334761Y-92072142D01*
X181213809Y-92072142D01*
X181274285Y-92374523D02*
X181153333Y-92314047D01*
X181032380Y-92193095D01*
X180971904Y-91951190D01*
X180971904Y-91527857D01*
X181032380Y-91285952D01*
X181153333Y-91165000D01*
X181274285Y-91104523D01*
X181516190Y-91104523D01*
X181637142Y-91165000D01*
X181758095Y-91285952D01*
X181818571Y-91527857D01*
X181818571Y-91951190D01*
X181758095Y-92193095D01*
X181637142Y-92314047D01*
X181516190Y-92374523D01*
X181274285Y-92374523D01*
X182241904Y-91104523D02*
X183028095Y-91104523D01*
X182604761Y-91588333D01*
X182786190Y-91588333D01*
X182907142Y-91648809D01*
X182967619Y-91709285D01*
X183028095Y-91830238D01*
X183028095Y-92132619D01*
X182967619Y-92253571D01*
X182907142Y-92314047D01*
X182786190Y-92374523D01*
X182423333Y-92374523D01*
X182302380Y-92314047D01*
X182241904Y-92253571D01*
D14*
%TO.C,C1*%
X158540607Y-101465616D02*
X158559355Y-101484364D01*
X158578102Y-101540607D01*
X158578102Y-101578102D01*
X158559355Y-101634345D01*
X158521859Y-101671841D01*
X158484364Y-101690588D01*
X158409373Y-101709336D01*
X158353130Y-101709336D01*
X158278140Y-101690588D01*
X158240644Y-101671841D01*
X158203149Y-101634345D01*
X158184401Y-101578102D01*
X158184401Y-101540607D01*
X158203149Y-101484364D01*
X158221897Y-101465616D01*
X158578102Y-101090663D02*
X158578102Y-101315635D01*
X158578102Y-101203149D02*
X158184401Y-101203149D01*
X158240644Y-101240644D01*
X158278140Y-101278140D01*
X158296887Y-101315635D01*
D15*
%TO.C,Q4*%
X181479047Y-101695476D02*
X181358095Y-101635000D01*
X181237142Y-101514047D01*
X181055714Y-101332619D01*
X180934761Y-101272142D01*
X180813809Y-101272142D01*
X180874285Y-101574523D02*
X180753333Y-101514047D01*
X180632380Y-101393095D01*
X180571904Y-101151190D01*
X180571904Y-100727857D01*
X180632380Y-100485952D01*
X180753333Y-100365000D01*
X180874285Y-100304523D01*
X181116190Y-100304523D01*
X181237142Y-100365000D01*
X181358095Y-100485952D01*
X181418571Y-100727857D01*
X181418571Y-101151190D01*
X181358095Y-101393095D01*
X181237142Y-101514047D01*
X181116190Y-101574523D01*
X180874285Y-101574523D01*
X182507142Y-100727857D02*
X182507142Y-101574523D01*
X182204761Y-100244047D02*
X181902380Y-101151190D01*
X182688571Y-101151190D01*
%TO.C,R2*%
X123488333Y-96274523D02*
X123065000Y-95669761D01*
X122762619Y-96274523D02*
X122762619Y-95004523D01*
X123246428Y-95004523D01*
X123367380Y-95065000D01*
X123427857Y-95125476D01*
X123488333Y-95246428D01*
X123488333Y-95427857D01*
X123427857Y-95548809D01*
X123367380Y-95609285D01*
X123246428Y-95669761D01*
X122762619Y-95669761D01*
X123972142Y-95125476D02*
X124032619Y-95065000D01*
X124153571Y-95004523D01*
X124455952Y-95004523D01*
X124576904Y-95065000D01*
X124637380Y-95125476D01*
X124697857Y-95246428D01*
X124697857Y-95367380D01*
X124637380Y-95548809D01*
X123911666Y-96274523D01*
X124697857Y-96274523D01*
D11*
%TO.C,J2*%
X182562380Y-64933333D02*
X183276666Y-64933333D01*
X183419523Y-64980952D01*
X183514761Y-65076190D01*
X183562380Y-65219047D01*
X183562380Y-65314285D01*
X182657619Y-64504761D02*
X182610000Y-64457142D01*
X182562380Y-64361904D01*
X182562380Y-64123809D01*
X182610000Y-64028571D01*
X182657619Y-63980952D01*
X182752857Y-63933333D01*
X182848095Y-63933333D01*
X182990952Y-63980952D01*
X183562380Y-64552380D01*
X183562380Y-63933333D01*
D15*
%TO.C,R15*%
X176283571Y-101374523D02*
X175860238Y-100769761D01*
X175557857Y-101374523D02*
X175557857Y-100104523D01*
X176041666Y-100104523D01*
X176162619Y-100165000D01*
X176223095Y-100225476D01*
X176283571Y-100346428D01*
X176283571Y-100527857D01*
X176223095Y-100648809D01*
X176162619Y-100709285D01*
X176041666Y-100769761D01*
X175557857Y-100769761D01*
X177493095Y-101374523D02*
X176767380Y-101374523D01*
X177130238Y-101374523D02*
X177130238Y-100104523D01*
X177009285Y-100285952D01*
X176888333Y-100406904D01*
X176767380Y-100467380D01*
X178642142Y-100104523D02*
X178037380Y-100104523D01*
X177976904Y-100709285D01*
X178037380Y-100648809D01*
X178158333Y-100588333D01*
X178460714Y-100588333D01*
X178581666Y-100648809D01*
X178642142Y-100709285D01*
X178702619Y-100830238D01*
X178702619Y-101132619D01*
X178642142Y-101253571D01*
X178581666Y-101314047D01*
X178460714Y-101374523D01*
X178158333Y-101374523D01*
X178037380Y-101314047D01*
X177976904Y-101253571D01*
D11*
%TO.C,U8*%
X116556316Y-87017299D02*
X117212196Y-87017299D01*
X117289358Y-86978717D01*
X117327940Y-86940136D01*
X117366521Y-86862974D01*
X117366521Y-86708649D01*
X117327940Y-86631487D01*
X117289358Y-86592905D01*
X117212196Y-86554324D01*
X116556316Y-86554324D01*
X116903547Y-86052769D02*
X116864965Y-86129931D01*
X116826384Y-86168512D01*
X116749222Y-86207094D01*
X116710641Y-86207094D01*
X116633478Y-86168512D01*
X116594897Y-86129931D01*
X116556316Y-86052769D01*
X116556316Y-85898444D01*
X116594897Y-85821282D01*
X116633478Y-85782700D01*
X116710641Y-85744119D01*
X116749222Y-85744119D01*
X116826384Y-85782700D01*
X116864965Y-85821282D01*
X116903547Y-85898444D01*
X116903547Y-86052769D01*
X116942128Y-86129931D01*
X116980709Y-86168512D01*
X117057871Y-86207094D01*
X117212196Y-86207094D01*
X117289358Y-86168512D01*
X117327940Y-86129931D01*
X117366521Y-86052769D01*
X117366521Y-85898444D01*
X117327940Y-85821282D01*
X117289358Y-85782700D01*
X117212196Y-85744119D01*
X117057871Y-85744119D01*
X116980709Y-85782700D01*
X116942128Y-85821282D01*
X116903547Y-85898444D01*
D15*
%TO.C,R4*%
X137774523Y-96611666D02*
X137169761Y-97035000D01*
X137774523Y-97337380D02*
X136504523Y-97337380D01*
X136504523Y-96853571D01*
X136565000Y-96732619D01*
X136625476Y-96672142D01*
X136746428Y-96611666D01*
X136927857Y-96611666D01*
X137048809Y-96672142D01*
X137109285Y-96732619D01*
X137169761Y-96853571D01*
X137169761Y-97337380D01*
X136927857Y-95523095D02*
X137774523Y-95523095D01*
X136444047Y-95825476D02*
X137351190Y-96127857D01*
X137351190Y-95341666D01*
%TO.C,R5*%
X151788333Y-90274523D02*
X151365000Y-89669761D01*
X151062619Y-90274523D02*
X151062619Y-89004523D01*
X151546428Y-89004523D01*
X151667380Y-89065000D01*
X151727857Y-89125476D01*
X151788333Y-89246428D01*
X151788333Y-89427857D01*
X151727857Y-89548809D01*
X151667380Y-89609285D01*
X151546428Y-89669761D01*
X151062619Y-89669761D01*
X152937380Y-89004523D02*
X152332619Y-89004523D01*
X152272142Y-89609285D01*
X152332619Y-89548809D01*
X152453571Y-89488333D01*
X152755952Y-89488333D01*
X152876904Y-89548809D01*
X152937380Y-89609285D01*
X152997857Y-89730238D01*
X152997857Y-90032619D01*
X152937380Y-90153571D01*
X152876904Y-90214047D01*
X152755952Y-90274523D01*
X152453571Y-90274523D01*
X152332619Y-90214047D01*
X152272142Y-90153571D01*
D11*
%TO.C,U1*%
X152838095Y-99652380D02*
X152838095Y-100461904D01*
X152885714Y-100557142D01*
X152933333Y-100604761D01*
X153028571Y-100652380D01*
X153219047Y-100652380D01*
X153314285Y-100604761D01*
X153361904Y-100557142D01*
X153409523Y-100461904D01*
X153409523Y-99652380D01*
X154409523Y-100652380D02*
X153838095Y-100652380D01*
X154123809Y-100652380D02*
X154123809Y-99652380D01*
X154028571Y-99795238D01*
X153933333Y-99890476D01*
X153838095Y-99938095D01*
%TO.C,IC3*%
X164022218Y-98253118D02*
X164022218Y-97251488D01*
X165071545Y-98157725D02*
X165023848Y-98205421D01*
X164880758Y-98253118D01*
X164785365Y-98253118D01*
X164642275Y-98205421D01*
X164546881Y-98110028D01*
X164499185Y-98014635D01*
X164451488Y-97823848D01*
X164451488Y-97680758D01*
X164499185Y-97489971D01*
X164546881Y-97394578D01*
X164642275Y-97299185D01*
X164785365Y-97251488D01*
X164880758Y-97251488D01*
X165023848Y-97299185D01*
X165071545Y-97346881D01*
X165405421Y-97251488D02*
X166025478Y-97251488D01*
X165691601Y-97633061D01*
X165834691Y-97633061D01*
X165930085Y-97680758D01*
X165977781Y-97728455D01*
X166025478Y-97823848D01*
X166025478Y-98062331D01*
X165977781Y-98157725D01*
X165930085Y-98205421D01*
X165834691Y-98253118D01*
X165548511Y-98253118D01*
X165453118Y-98205421D01*
X165405421Y-98157725D01*
D15*
%TO.C,R12*%
X129674523Y-78316428D02*
X129069761Y-78739761D01*
X129674523Y-79042142D02*
X128404523Y-79042142D01*
X128404523Y-78558333D01*
X128465000Y-78437380D01*
X128525476Y-78376904D01*
X128646428Y-78316428D01*
X128827857Y-78316428D01*
X128948809Y-78376904D01*
X129009285Y-78437380D01*
X129069761Y-78558333D01*
X129069761Y-79042142D01*
X129674523Y-77106904D02*
X129674523Y-77832619D01*
X129674523Y-77469761D02*
X128404523Y-77469761D01*
X128585952Y-77590714D01*
X128706904Y-77711666D01*
X128767380Y-77832619D01*
X128525476Y-76623095D02*
X128465000Y-76562619D01*
X128404523Y-76441666D01*
X128404523Y-76139285D01*
X128465000Y-76018333D01*
X128525476Y-75957857D01*
X128646428Y-75897380D01*
X128767380Y-75897380D01*
X128948809Y-75957857D01*
X129674523Y-76683571D01*
X129674523Y-75897380D01*
%TO.C,R16*%
X172183571Y-101374523D02*
X171760238Y-100769761D01*
X171457857Y-101374523D02*
X171457857Y-100104523D01*
X171941666Y-100104523D01*
X172062619Y-100165000D01*
X172123095Y-100225476D01*
X172183571Y-100346428D01*
X172183571Y-100527857D01*
X172123095Y-100648809D01*
X172062619Y-100709285D01*
X171941666Y-100769761D01*
X171457857Y-100769761D01*
X173393095Y-101374523D02*
X172667380Y-101374523D01*
X173030238Y-101374523D02*
X173030238Y-100104523D01*
X172909285Y-100285952D01*
X172788333Y-100406904D01*
X172667380Y-100467380D01*
X174481666Y-100104523D02*
X174239761Y-100104523D01*
X174118809Y-100165000D01*
X174058333Y-100225476D01*
X173937380Y-100406904D01*
X173876904Y-100648809D01*
X173876904Y-101132619D01*
X173937380Y-101253571D01*
X173997857Y-101314047D01*
X174118809Y-101374523D01*
X174360714Y-101374523D01*
X174481666Y-101314047D01*
X174542142Y-101253571D01*
X174602619Y-101132619D01*
X174602619Y-100830238D01*
X174542142Y-100709285D01*
X174481666Y-100648809D01*
X174360714Y-100588333D01*
X174118809Y-100588333D01*
X173997857Y-100648809D01*
X173937380Y-100709285D01*
X173876904Y-100830238D01*
D13*
%TO.C,C8*%
X126469309Y-70879011D02*
X126491884Y-70901585D01*
X126514458Y-70969309D01*
X126514458Y-71014458D01*
X126491884Y-71082182D01*
X126446735Y-71127331D01*
X126401585Y-71149906D01*
X126311287Y-71172481D01*
X126243563Y-71172481D01*
X126153264Y-71149906D01*
X126108115Y-71127331D01*
X126062966Y-71082182D01*
X126040391Y-71014458D01*
X126040391Y-70969309D01*
X126062966Y-70901585D01*
X126085541Y-70879011D01*
X126243563Y-70608115D02*
X126220988Y-70653264D01*
X126198414Y-70675839D01*
X126153264Y-70698414D01*
X126130690Y-70698414D01*
X126085541Y-70675839D01*
X126062966Y-70653264D01*
X126040391Y-70608115D01*
X126040391Y-70517817D01*
X126062966Y-70472668D01*
X126085541Y-70450093D01*
X126130690Y-70427518D01*
X126153264Y-70427518D01*
X126198414Y-70450093D01*
X126220988Y-70472668D01*
X126243563Y-70517817D01*
X126243563Y-70608115D01*
X126266138Y-70653264D01*
X126288712Y-70675839D01*
X126333861Y-70698414D01*
X126424160Y-70698414D01*
X126469309Y-70675839D01*
X126491884Y-70653264D01*
X126514458Y-70608115D01*
X126514458Y-70517817D01*
X126491884Y-70472668D01*
X126469309Y-70450093D01*
X126424160Y-70427518D01*
X126333861Y-70427518D01*
X126288712Y-70450093D01*
X126266138Y-70472668D01*
X126243563Y-70517817D01*
D11*
%TO.C,J4*%
X173910666Y-70088380D02*
X173910666Y-70802666D01*
X173863047Y-70945523D01*
X173767809Y-71040761D01*
X173624952Y-71088380D01*
X173529714Y-71088380D01*
X174815428Y-70421714D02*
X174815428Y-71088380D01*
X174577333Y-70040761D02*
X174339238Y-70755047D01*
X174958285Y-70755047D01*
%TO.C,J1*%
X182122380Y-54773333D02*
X182836666Y-54773333D01*
X182979523Y-54820952D01*
X183074761Y-54916190D01*
X183122380Y-55059047D01*
X183122380Y-55154285D01*
X183122380Y-53773333D02*
X183122380Y-54344761D01*
X183122380Y-54059047D02*
X182122380Y-54059047D01*
X182265238Y-54154285D01*
X182360476Y-54249523D01*
X182408095Y-54344761D01*
%TO.C,J16*%
X111390476Y-80852380D02*
X111390476Y-81566666D01*
X111342857Y-81709523D01*
X111247619Y-81804761D01*
X111104761Y-81852380D01*
X111009523Y-81852380D01*
X112390476Y-81852380D02*
X111819047Y-81852380D01*
X112104761Y-81852380D02*
X112104761Y-80852380D01*
X112009523Y-80995238D01*
X111914285Y-81090476D01*
X111819047Y-81138095D01*
X113247619Y-80852380D02*
X113057142Y-80852380D01*
X112961904Y-80900000D01*
X112914285Y-80947619D01*
X112819047Y-81090476D01*
X112771428Y-81280952D01*
X112771428Y-81661904D01*
X112819047Y-81757142D01*
X112866666Y-81804761D01*
X112961904Y-81852380D01*
X113152380Y-81852380D01*
X113247619Y-81804761D01*
X113295238Y-81757142D01*
X113342857Y-81661904D01*
X113342857Y-81423809D01*
X113295238Y-81328571D01*
X113247619Y-81280952D01*
X113152380Y-81233333D01*
X112961904Y-81233333D01*
X112866666Y-81280952D01*
X112819047Y-81328571D01*
X112771428Y-81423809D01*
%TO.C,IC1*%
X155022218Y-98253118D02*
X155022218Y-97251488D01*
X156071545Y-98157725D02*
X156023848Y-98205421D01*
X155880758Y-98253118D01*
X155785365Y-98253118D01*
X155642275Y-98205421D01*
X155546881Y-98110028D01*
X155499185Y-98014635D01*
X155451488Y-97823848D01*
X155451488Y-97680758D01*
X155499185Y-97489971D01*
X155546881Y-97394578D01*
X155642275Y-97299185D01*
X155785365Y-97251488D01*
X155880758Y-97251488D01*
X156023848Y-97299185D01*
X156071545Y-97346881D01*
X157025478Y-98253118D02*
X156453118Y-98253118D01*
X156739298Y-98253118D02*
X156739298Y-97251488D01*
X156643905Y-97394578D01*
X156548511Y-97489971D01*
X156453118Y-97537668D01*
%TO.C,BT1*%
X177100375Y-144667357D02*
X177243280Y-144714992D01*
X177290914Y-144762627D01*
X177338549Y-144857897D01*
X177338549Y-145000801D01*
X177290914Y-145096071D01*
X177243280Y-145143705D01*
X177148010Y-145191340D01*
X176766931Y-145191340D01*
X176766931Y-144191009D01*
X177100375Y-144191009D01*
X177195645Y-144238644D01*
X177243280Y-144286279D01*
X177290914Y-144381548D01*
X177290914Y-144476818D01*
X177243280Y-144572088D01*
X177195645Y-144619722D01*
X177100375Y-144667357D01*
X176766931Y-144667357D01*
X177624358Y-144191009D02*
X178195976Y-144191009D01*
X177910167Y-145191340D02*
X177910167Y-144191009D01*
X179053402Y-145191340D02*
X178481785Y-145191340D01*
X178767593Y-145191340D02*
X178767593Y-144191009D01*
X178672324Y-144333914D01*
X178577054Y-144429183D01*
X178481785Y-144476818D01*
%TO.C,J10*%
X141290476Y-91182380D02*
X141290476Y-91896666D01*
X141242857Y-92039523D01*
X141147619Y-92134761D01*
X141004761Y-92182380D01*
X140909523Y-92182380D01*
X142290476Y-92182380D02*
X141719047Y-92182380D01*
X142004761Y-92182380D02*
X142004761Y-91182380D01*
X141909523Y-91325238D01*
X141814285Y-91420476D01*
X141719047Y-91468095D01*
X142909523Y-91182380D02*
X143004761Y-91182380D01*
X143100000Y-91230000D01*
X143147619Y-91277619D01*
X143195238Y-91372857D01*
X143242857Y-91563333D01*
X143242857Y-91801428D01*
X143195238Y-91991904D01*
X143147619Y-92087142D01*
X143100000Y-92134761D01*
X143004761Y-92182380D01*
X142909523Y-92182380D01*
X142814285Y-92134761D01*
X142766666Y-92087142D01*
X142719047Y-91991904D01*
X142671428Y-91801428D01*
X142671428Y-91563333D01*
X142719047Y-91372857D01*
X142766666Y-91277619D01*
X142814285Y-91230000D01*
X142909523Y-91182380D01*
D15*
%TO.C,Q1*%
X145695476Y-98720952D02*
X145635000Y-98841904D01*
X145514047Y-98962857D01*
X145332619Y-99144285D01*
X145272142Y-99265238D01*
X145272142Y-99386190D01*
X145574523Y-99325714D02*
X145514047Y-99446666D01*
X145393095Y-99567619D01*
X145151190Y-99628095D01*
X144727857Y-99628095D01*
X144485952Y-99567619D01*
X144365000Y-99446666D01*
X144304523Y-99325714D01*
X144304523Y-99083809D01*
X144365000Y-98962857D01*
X144485952Y-98841904D01*
X144727857Y-98781428D01*
X145151190Y-98781428D01*
X145393095Y-98841904D01*
X145514047Y-98962857D01*
X145574523Y-99083809D01*
X145574523Y-99325714D01*
X145574523Y-97571904D02*
X145574523Y-98297619D01*
X145574523Y-97934761D02*
X144304523Y-97934761D01*
X144485952Y-98055714D01*
X144606904Y-98176666D01*
X144667380Y-98297619D01*
D14*
%TO.C,D1*%
X119653102Y-92660588D02*
X119259401Y-92660588D01*
X119259401Y-92566850D01*
X119278149Y-92510607D01*
X119315644Y-92473112D01*
X119353140Y-92454364D01*
X119428130Y-92435616D01*
X119484373Y-92435616D01*
X119559364Y-92454364D01*
X119596859Y-92473112D01*
X119634355Y-92510607D01*
X119653102Y-92566850D01*
X119653102Y-92660588D01*
X119653102Y-92060663D02*
X119653102Y-92285635D01*
X119653102Y-92173149D02*
X119259401Y-92173149D01*
X119315644Y-92210644D01*
X119353140Y-92248140D01*
X119371887Y-92285635D01*
D11*
%TO.C,C7*%
X129024971Y-72504986D02*
X129054968Y-72534983D01*
X129084964Y-72624971D01*
X129084964Y-72684964D01*
X129054968Y-72774952D01*
X128994975Y-72834945D01*
X128934983Y-72864941D01*
X128814998Y-72894937D01*
X128725009Y-72894937D01*
X128605024Y-72864941D01*
X128545031Y-72834945D01*
X128485039Y-72774952D01*
X128455043Y-72684964D01*
X128455043Y-72624971D01*
X128485039Y-72534983D01*
X128515035Y-72504986D01*
X128455043Y-72295013D02*
X128455043Y-71875065D01*
X129084964Y-72145031D01*
%TO.C,J19*%
X120190476Y-73932380D02*
X120190476Y-74646666D01*
X120142857Y-74789523D01*
X120047619Y-74884761D01*
X119904761Y-74932380D01*
X119809523Y-74932380D01*
X121190476Y-74932380D02*
X120619047Y-74932380D01*
X120904761Y-74932380D02*
X120904761Y-73932380D01*
X120809523Y-74075238D01*
X120714285Y-74170476D01*
X120619047Y-74218095D01*
X121666666Y-74932380D02*
X121857142Y-74932380D01*
X121952380Y-74884761D01*
X122000000Y-74837142D01*
X122095238Y-74694285D01*
X122142857Y-74503809D01*
X122142857Y-74122857D01*
X122095238Y-74027619D01*
X122047619Y-73980000D01*
X121952380Y-73932380D01*
X121761904Y-73932380D01*
X121666666Y-73980000D01*
X121619047Y-74027619D01*
X121571428Y-74122857D01*
X121571428Y-74360952D01*
X121619047Y-74456190D01*
X121666666Y-74503809D01*
X121761904Y-74551428D01*
X121952380Y-74551428D01*
X122047619Y-74503809D01*
X122095238Y-74456190D01*
X122142857Y-74360952D01*
%TO.C,J8*%
X182122380Y-115733333D02*
X182836666Y-115733333D01*
X182979523Y-115780952D01*
X183074761Y-115876190D01*
X183122380Y-116019047D01*
X183122380Y-116114285D01*
X182550952Y-115114285D02*
X182503333Y-115209523D01*
X182455714Y-115257142D01*
X182360476Y-115304761D01*
X182312857Y-115304761D01*
X182217619Y-115257142D01*
X182170000Y-115209523D01*
X182122380Y-115114285D01*
X182122380Y-114923809D01*
X182170000Y-114828571D01*
X182217619Y-114780952D01*
X182312857Y-114733333D01*
X182360476Y-114733333D01*
X182455714Y-114780952D01*
X182503333Y-114828571D01*
X182550952Y-114923809D01*
X182550952Y-115114285D01*
X182598571Y-115209523D01*
X182646190Y-115257142D01*
X182741428Y-115304761D01*
X182931904Y-115304761D01*
X183027142Y-115257142D01*
X183074761Y-115209523D01*
X183122380Y-115114285D01*
X183122380Y-114923809D01*
X183074761Y-114828571D01*
X183027142Y-114780952D01*
X182931904Y-114733333D01*
X182741428Y-114733333D01*
X182646190Y-114780952D01*
X182598571Y-114828571D01*
X182550952Y-114923809D01*
D13*
%TO.C,C11*%
X158369309Y-86904757D02*
X158391884Y-86927331D01*
X158414458Y-86995055D01*
X158414458Y-87040205D01*
X158391884Y-87107928D01*
X158346735Y-87153078D01*
X158301585Y-87175652D01*
X158211287Y-87198227D01*
X158143563Y-87198227D01*
X158053264Y-87175652D01*
X158008115Y-87153078D01*
X157962966Y-87107928D01*
X157940391Y-87040205D01*
X157940391Y-86995055D01*
X157962966Y-86927331D01*
X157985541Y-86904757D01*
X158414458Y-86453264D02*
X158414458Y-86724160D01*
X158414458Y-86588712D02*
X157940391Y-86588712D01*
X158008115Y-86633861D01*
X158053264Y-86679011D01*
X158075839Y-86724160D01*
X158414458Y-86001772D02*
X158414458Y-86272668D01*
X158414458Y-86137220D02*
X157940391Y-86137220D01*
X158008115Y-86182369D01*
X158053264Y-86227518D01*
X158075839Y-86272668D01*
D11*
%TO.C,J13*%
X185190476Y-90252380D02*
X185190476Y-90966666D01*
X185142857Y-91109523D01*
X185047619Y-91204761D01*
X184904761Y-91252380D01*
X184809523Y-91252380D01*
X186190476Y-91252380D02*
X185619047Y-91252380D01*
X185904761Y-91252380D02*
X185904761Y-90252380D01*
X185809523Y-90395238D01*
X185714285Y-90490476D01*
X185619047Y-90538095D01*
X186523809Y-90252380D02*
X187142857Y-90252380D01*
X186809523Y-90633333D01*
X186952380Y-90633333D01*
X187047619Y-90680952D01*
X187095238Y-90728571D01*
X187142857Y-90823809D01*
X187142857Y-91061904D01*
X187095238Y-91157142D01*
X187047619Y-91204761D01*
X186952380Y-91252380D01*
X186666666Y-91252380D01*
X186571428Y-91204761D01*
X186523809Y-91157142D01*
D14*
%TO.C,D2*%
X123199411Y-100578102D02*
X123199411Y-100184401D01*
X123293149Y-100184401D01*
X123349392Y-100203149D01*
X123386887Y-100240644D01*
X123405635Y-100278140D01*
X123424383Y-100353130D01*
X123424383Y-100409373D01*
X123405635Y-100484364D01*
X123386887Y-100521859D01*
X123349392Y-100559355D01*
X123293149Y-100578102D01*
X123199411Y-100578102D01*
X123574364Y-100221897D02*
X123593112Y-100203149D01*
X123630607Y-100184401D01*
X123724345Y-100184401D01*
X123761841Y-100203149D01*
X123780588Y-100221897D01*
X123799336Y-100259392D01*
X123799336Y-100296887D01*
X123780588Y-100353130D01*
X123555616Y-100578102D01*
X123799336Y-100578102D01*
D11*
%TO.C,J12*%
X132790476Y-87182380D02*
X132790476Y-87896666D01*
X132742857Y-88039523D01*
X132647619Y-88134761D01*
X132504761Y-88182380D01*
X132409523Y-88182380D01*
X133790476Y-88182380D02*
X133219047Y-88182380D01*
X133504761Y-88182380D02*
X133504761Y-87182380D01*
X133409523Y-87325238D01*
X133314285Y-87420476D01*
X133219047Y-87468095D01*
X134171428Y-87277619D02*
X134219047Y-87230000D01*
X134314285Y-87182380D01*
X134552380Y-87182380D01*
X134647619Y-87230000D01*
X134695238Y-87277619D01*
X134742857Y-87372857D01*
X134742857Y-87468095D01*
X134695238Y-87610952D01*
X134123809Y-88182380D01*
X134742857Y-88182380D01*
%TO.C,J7*%
X182562380Y-105573333D02*
X183276666Y-105573333D01*
X183419523Y-105620952D01*
X183514761Y-105716190D01*
X183562380Y-105859047D01*
X183562380Y-105954285D01*
X182562380Y-105192380D02*
X182562380Y-104525714D01*
X183562380Y-104954285D01*
%TO.C,J18*%
X106590476Y-74252380D02*
X106590476Y-74966666D01*
X106542857Y-75109523D01*
X106447619Y-75204761D01*
X106304761Y-75252380D01*
X106209523Y-75252380D01*
X107590476Y-75252380D02*
X107019047Y-75252380D01*
X107304761Y-75252380D02*
X107304761Y-74252380D01*
X107209523Y-74395238D01*
X107114285Y-74490476D01*
X107019047Y-74538095D01*
X108161904Y-74680952D02*
X108066666Y-74633333D01*
X108019047Y-74585714D01*
X107971428Y-74490476D01*
X107971428Y-74442857D01*
X108019047Y-74347619D01*
X108066666Y-74300000D01*
X108161904Y-74252380D01*
X108352380Y-74252380D01*
X108447619Y-74300000D01*
X108495238Y-74347619D01*
X108542857Y-74442857D01*
X108542857Y-74490476D01*
X108495238Y-74585714D01*
X108447619Y-74633333D01*
X108352380Y-74680952D01*
X108161904Y-74680952D01*
X108066666Y-74728571D01*
X108019047Y-74776190D01*
X107971428Y-74871428D01*
X107971428Y-75061904D01*
X108019047Y-75157142D01*
X108066666Y-75204761D01*
X108161904Y-75252380D01*
X108352380Y-75252380D01*
X108447619Y-75204761D01*
X108495238Y-75157142D01*
X108542857Y-75061904D01*
X108542857Y-74871428D01*
X108495238Y-74776190D01*
X108447619Y-74728571D01*
X108352380Y-74680952D01*
D15*
%TO.C,TH1*%
X123804523Y-75832857D02*
X123804523Y-75107142D01*
X125074523Y-75470000D02*
X123804523Y-75470000D01*
X125074523Y-74683809D02*
X123804523Y-74683809D01*
X124409285Y-74683809D02*
X124409285Y-73958095D01*
X125074523Y-73958095D02*
X123804523Y-73958095D01*
X125074523Y-72688095D02*
X125074523Y-73413809D01*
X125074523Y-73050952D02*
X123804523Y-73050952D01*
X123985952Y-73171904D01*
X124106904Y-73292857D01*
X124167380Y-73413809D01*
%TO.C,Q2*%
X145595476Y-94920952D02*
X145535000Y-95041904D01*
X145414047Y-95162857D01*
X145232619Y-95344285D01*
X145172142Y-95465238D01*
X145172142Y-95586190D01*
X145474523Y-95525714D02*
X145414047Y-95646666D01*
X145293095Y-95767619D01*
X145051190Y-95828095D01*
X144627857Y-95828095D01*
X144385952Y-95767619D01*
X144265000Y-95646666D01*
X144204523Y-95525714D01*
X144204523Y-95283809D01*
X144265000Y-95162857D01*
X144385952Y-95041904D01*
X144627857Y-94981428D01*
X145051190Y-94981428D01*
X145293095Y-95041904D01*
X145414047Y-95162857D01*
X145474523Y-95283809D01*
X145474523Y-95525714D01*
X144325476Y-94497619D02*
X144265000Y-94437142D01*
X144204523Y-94316190D01*
X144204523Y-94013809D01*
X144265000Y-93892857D01*
X144325476Y-93832380D01*
X144446428Y-93771904D01*
X144567380Y-93771904D01*
X144748809Y-93832380D01*
X145474523Y-94558095D01*
X145474523Y-93771904D01*
D11*
%TO.C,J3*%
X169719666Y-70088380D02*
X169719666Y-70802666D01*
X169672047Y-70945523D01*
X169576809Y-71040761D01*
X169433952Y-71088380D01*
X169338714Y-71088380D01*
X170100619Y-70088380D02*
X170719666Y-70088380D01*
X170386333Y-70469333D01*
X170529190Y-70469333D01*
X170624428Y-70516952D01*
X170672047Y-70564571D01*
X170719666Y-70659809D01*
X170719666Y-70897904D01*
X170672047Y-70993142D01*
X170624428Y-71040761D01*
X170529190Y-71088380D01*
X170243476Y-71088380D01*
X170148238Y-71040761D01*
X170100619Y-70993142D01*
D15*
%TO.C,IC2*%
X128760238Y-100774523D02*
X128760238Y-99504523D01*
X130090714Y-100653571D02*
X130030238Y-100714047D01*
X129848809Y-100774523D01*
X129727857Y-100774523D01*
X129546428Y-100714047D01*
X129425476Y-100593095D01*
X129365000Y-100472142D01*
X129304523Y-100230238D01*
X129304523Y-100048809D01*
X129365000Y-99806904D01*
X129425476Y-99685952D01*
X129546428Y-99565000D01*
X129727857Y-99504523D01*
X129848809Y-99504523D01*
X130030238Y-99565000D01*
X130090714Y-99625476D01*
X130574523Y-99625476D02*
X130635000Y-99565000D01*
X130755952Y-99504523D01*
X131058333Y-99504523D01*
X131179285Y-99565000D01*
X131239761Y-99625476D01*
X131300238Y-99746428D01*
X131300238Y-99867380D01*
X131239761Y-100048809D01*
X130514047Y-100774523D01*
X131300238Y-100774523D01*
%TO.C,R3*%
X145388333Y-87574523D02*
X144965000Y-86969761D01*
X144662619Y-87574523D02*
X144662619Y-86304523D01*
X145146428Y-86304523D01*
X145267380Y-86365000D01*
X145327857Y-86425476D01*
X145388333Y-86546428D01*
X145388333Y-86727857D01*
X145327857Y-86848809D01*
X145267380Y-86909285D01*
X145146428Y-86969761D01*
X144662619Y-86969761D01*
X145811666Y-86304523D02*
X146597857Y-86304523D01*
X146174523Y-86788333D01*
X146355952Y-86788333D01*
X146476904Y-86848809D01*
X146537380Y-86909285D01*
X146597857Y-87030238D01*
X146597857Y-87332619D01*
X146537380Y-87453571D01*
X146476904Y-87514047D01*
X146355952Y-87574523D01*
X145993095Y-87574523D01*
X145872142Y-87514047D01*
X145811666Y-87453571D01*
D14*
%TO.C,C2*%
X124340607Y-90925616D02*
X124359355Y-90944364D01*
X124378102Y-91000607D01*
X124378102Y-91038102D01*
X124359355Y-91094345D01*
X124321859Y-91131841D01*
X124284364Y-91150588D01*
X124209373Y-91169336D01*
X124153130Y-91169336D01*
X124078140Y-91150588D01*
X124040644Y-91131841D01*
X124003149Y-91094345D01*
X123984401Y-91038102D01*
X123984401Y-91000607D01*
X124003149Y-90944364D01*
X124021897Y-90925616D01*
X124021897Y-90775635D02*
X124003149Y-90756887D01*
X123984401Y-90719392D01*
X123984401Y-90625654D01*
X124003149Y-90588158D01*
X124021897Y-90569411D01*
X124059392Y-90550663D01*
X124096887Y-90550663D01*
X124153130Y-90569411D01*
X124378102Y-90794383D01*
X124378102Y-90550663D01*
D15*
%TO.C,Re1*%
X123109047Y-99734523D02*
X122685714Y-99129761D01*
X122383333Y-99734523D02*
X122383333Y-98464523D01*
X122867142Y-98464523D01*
X122988095Y-98525000D01*
X123048571Y-98585476D01*
X123109047Y-98706428D01*
X123109047Y-98887857D01*
X123048571Y-99008809D01*
X122988095Y-99069285D01*
X122867142Y-99129761D01*
X122383333Y-99129761D01*
X124137142Y-99674047D02*
X124016190Y-99734523D01*
X123774285Y-99734523D01*
X123653333Y-99674047D01*
X123592857Y-99553095D01*
X123592857Y-99069285D01*
X123653333Y-98948333D01*
X123774285Y-98887857D01*
X124016190Y-98887857D01*
X124137142Y-98948333D01*
X124197619Y-99069285D01*
X124197619Y-99190238D01*
X123592857Y-99311190D01*
X125407142Y-99734523D02*
X124681428Y-99734523D01*
X125044285Y-99734523D02*
X125044285Y-98464523D01*
X124923333Y-98645952D01*
X124802380Y-98766904D01*
X124681428Y-98827380D01*
D11*
%TO.C,U4*%
X162438095Y-80052380D02*
X162438095Y-80861904D01*
X162485714Y-80957142D01*
X162533333Y-81004761D01*
X162628571Y-81052380D01*
X162819047Y-81052380D01*
X162914285Y-81004761D01*
X162961904Y-80957142D01*
X163009523Y-80861904D01*
X163009523Y-80052380D01*
X163914285Y-80385714D02*
X163914285Y-81052380D01*
X163676190Y-80004761D02*
X163438095Y-80719047D01*
X164057142Y-80719047D01*
D13*
%TO.C,C10*%
X160969309Y-86904757D02*
X160991884Y-86927331D01*
X161014458Y-86995055D01*
X161014458Y-87040205D01*
X160991884Y-87107928D01*
X160946735Y-87153078D01*
X160901585Y-87175652D01*
X160811287Y-87198227D01*
X160743563Y-87198227D01*
X160653264Y-87175652D01*
X160608115Y-87153078D01*
X160562966Y-87107928D01*
X160540391Y-87040205D01*
X160540391Y-86995055D01*
X160562966Y-86927331D01*
X160585541Y-86904757D01*
X161014458Y-86453264D02*
X161014458Y-86724160D01*
X161014458Y-86588712D02*
X160540391Y-86588712D01*
X160608115Y-86633861D01*
X160653264Y-86679011D01*
X160675839Y-86724160D01*
X160540391Y-86159794D02*
X160540391Y-86114645D01*
X160562966Y-86069496D01*
X160585541Y-86046921D01*
X160630690Y-86024347D01*
X160720988Y-86001772D01*
X160833861Y-86001772D01*
X160924160Y-86024347D01*
X160969309Y-86046921D01*
X160991884Y-86069496D01*
X161014458Y-86114645D01*
X161014458Y-86159794D01*
X160991884Y-86204944D01*
X160969309Y-86227518D01*
X160924160Y-86250093D01*
X160833861Y-86272668D01*
X160720988Y-86272668D01*
X160630690Y-86250093D01*
X160585541Y-86227518D01*
X160562966Y-86204944D01*
X160540391Y-86159794D01*
D11*
%TO.C,J9*%
X174066666Y-77452380D02*
X174066666Y-78166666D01*
X174019047Y-78309523D01*
X173923809Y-78404761D01*
X173780952Y-78452380D01*
X173685714Y-78452380D01*
X174590476Y-78452380D02*
X174780952Y-78452380D01*
X174876190Y-78404761D01*
X174923809Y-78357142D01*
X175019047Y-78214285D01*
X175066666Y-78023809D01*
X175066666Y-77642857D01*
X175019047Y-77547619D01*
X174971428Y-77500000D01*
X174876190Y-77452380D01*
X174685714Y-77452380D01*
X174590476Y-77500000D01*
X174542857Y-77547619D01*
X174495238Y-77642857D01*
X174495238Y-77880952D01*
X174542857Y-77976190D01*
X174590476Y-78023809D01*
X174685714Y-78071428D01*
X174876190Y-78071428D01*
X174971428Y-78023809D01*
X175019047Y-77976190D01*
X175066666Y-77880952D01*
D16*
%TO.C,C9*%
X117050000Y-78950000D02*
X117350000Y-78950000D01*
X117050000Y-79850000D02*
X117350000Y-79850000D01*
%TO.C,C3*%
X128400000Y-90240000D02*
X128400000Y-89160000D01*
X130200000Y-90240000D02*
X130200000Y-89160000D01*
D17*
%TO.C,Je1*%
X112750000Y-90920000D02*
X114080000Y-90920000D01*
X111420000Y-93580000D02*
X114080000Y-93580000D01*
X114080000Y-93460000D02*
X114080000Y-93580000D01*
X111420000Y-93460000D02*
X111420000Y-93580000D01*
X114080000Y-90920000D02*
X114080000Y-92250000D01*
D16*
%TO.C,C6*%
X119565000Y-83245000D02*
X119565000Y-83545000D01*
X120465000Y-83245000D02*
X120465000Y-83545000D01*
D17*
%TO.C,J17*%
X106920000Y-93460000D02*
X106920000Y-93580000D01*
X109580000Y-93460000D02*
X109580000Y-93580000D01*
X108250000Y-90920000D02*
X109580000Y-90920000D01*
X106920000Y-93580000D02*
X109580000Y-93580000D01*
X109580000Y-90920000D02*
X109580000Y-92250000D01*
D18*
%TO.C,R1*%
X152000000Y-94500000D02*
X152000000Y-95100000D01*
D17*
%TO.C,J15*%
X113080000Y-78460000D02*
X113080000Y-78580000D01*
X113080000Y-75920000D02*
X113080000Y-77250000D01*
X111750000Y-75920000D02*
X113080000Y-75920000D01*
X110420000Y-78580000D02*
X113080000Y-78580000D01*
X110420000Y-78460000D02*
X110420000Y-78580000D01*
%TO.C,J14*%
X103000000Y-90870000D02*
X104330000Y-90870000D01*
X104330000Y-93410000D02*
X104330000Y-93530000D01*
X101670000Y-93410000D02*
X101670000Y-93530000D01*
X104330000Y-90870000D02*
X104330000Y-92200000D01*
X101670000Y-93530000D02*
X104330000Y-93530000D01*
%TO.C,J5*%
X177034000Y-74736000D02*
X179694000Y-74736000D01*
X178364000Y-72076000D02*
X179694000Y-72076000D01*
X179694000Y-72076000D02*
X179694000Y-73406000D01*
X177034000Y-74616000D02*
X177034000Y-74736000D01*
X179694000Y-74616000D02*
X179694000Y-74736000D01*
%TO.C,U3*%
X175200000Y-95160000D02*
X176875000Y-95160000D01*
X175200000Y-92040000D02*
X175850000Y-92040000D01*
X175200000Y-95160000D02*
X174550000Y-95160000D01*
X175200000Y-92040000D02*
X174550000Y-92040000D01*
%TO.C,U7*%
X134535000Y-72855000D02*
X134535000Y-70905000D01*
X139655000Y-72855000D02*
X139655000Y-69405000D01*
X134535000Y-72855000D02*
X134535000Y-74805000D01*
X139655000Y-72855000D02*
X139655000Y-74805000D01*
D18*
%TO.C,Q3*%
X180300000Y-95675000D02*
X180300000Y-92725000D01*
X180300000Y-92725000D02*
X180900000Y-92725000D01*
X180900000Y-92725000D02*
X180900000Y-95675000D01*
X180900000Y-95675000D02*
X180300000Y-95675000D01*
X178750000Y-92700000D02*
X179950000Y-92700000D01*
D16*
%TO.C,C1*%
X157800000Y-100560000D02*
X157800000Y-101640000D01*
X156000000Y-100560000D02*
X156000000Y-101640000D01*
D18*
%TO.C,Q4*%
X180300000Y-99675000D02*
X180300000Y-96725000D01*
X180900000Y-99675000D02*
X180300000Y-99675000D01*
X180300000Y-96725000D02*
X180900000Y-96725000D01*
X178750000Y-96700000D02*
X179950000Y-96700000D01*
X180900000Y-96725000D02*
X180900000Y-99675000D01*
%TO.C,R2*%
X123585000Y-93590000D02*
X123585000Y-94190000D01*
D17*
%TO.C,J2*%
X181670000Y-65930000D02*
X180340000Y-65930000D01*
X179070000Y-63270000D02*
X97730000Y-63270000D01*
X179070000Y-63270000D02*
X179070000Y-65930000D01*
X97730000Y-63270000D02*
X97730000Y-65930000D01*
X181670000Y-64600000D02*
X181670000Y-65930000D01*
X179070000Y-65930000D02*
X97730000Y-65930000D01*
D18*
%TO.C,R15*%
X176100000Y-98200000D02*
X176700000Y-98200000D01*
D16*
%TO.C,U8*%
X115735000Y-84730000D02*
X115735000Y-84260000D01*
X117945000Y-84260000D02*
X117945000Y-84730000D01*
X117945000Y-82570000D02*
X117945000Y-83040000D01*
X115735000Y-83040000D02*
X115735000Y-82570000D01*
D10*
X116090000Y-85000000D02*
G75*
G03*
X116090000Y-85000000I-50000J0D01*
G01*
D18*
%TO.C,R4*%
X134900000Y-96400000D02*
X135500000Y-96400000D01*
%TO.C,R5*%
X151900000Y-92400000D02*
X151900000Y-91800000D01*
D17*
%TO.C,U1*%
X151850000Y-96190000D02*
X152500000Y-96190000D01*
X151850000Y-96190000D02*
X150175000Y-96190000D01*
X151850000Y-99310000D02*
X151200000Y-99310000D01*
X151850000Y-99310000D02*
X152500000Y-99310000D01*
D16*
%TO.C,IC3*%
X169550000Y-91850000D02*
X165650000Y-91850000D01*
X169550000Y-96750000D02*
X165650000Y-96750000D01*
X171163500Y-96800000D02*
G75*
G03*
X171163500Y-96800000I-63500J0D01*
G01*
D18*
%TO.C,R12*%
X127300000Y-77465000D02*
X126700000Y-77465000D01*
%TO.C,R16*%
X174200000Y-98200000D02*
X173600000Y-98200000D01*
D16*
%TO.C,C8*%
X127150000Y-73350000D02*
X127150000Y-73050000D01*
X126250000Y-73350000D02*
X126250000Y-73050000D01*
D17*
%TO.C,J4*%
X174244000Y-72076000D02*
X175574000Y-72076000D01*
X172914000Y-74736000D02*
X175574000Y-74736000D01*
X175574000Y-74616000D02*
X175574000Y-74736000D01*
X172914000Y-74616000D02*
X172914000Y-74736000D01*
X175574000Y-72076000D02*
X175574000Y-73406000D01*
%TO.C,J1*%
X180340000Y-53110000D02*
X181670000Y-53110000D01*
X179070000Y-55770000D02*
X97730000Y-55770000D01*
X179070000Y-53110000D02*
X179070000Y-55770000D01*
X181670000Y-53110000D02*
X181670000Y-54440000D01*
X97730000Y-53110000D02*
X97730000Y-55770000D01*
X179070000Y-53110000D02*
X97730000Y-53110000D01*
%TO.C,J16*%
X111400000Y-82470000D02*
X112730000Y-82470000D01*
X110070000Y-85130000D02*
X112730000Y-85130000D01*
X112730000Y-85010000D02*
X112730000Y-85130000D01*
X112730000Y-82470000D02*
X112730000Y-83800000D01*
X110070000Y-85010000D02*
X110070000Y-85130000D01*
D16*
%TO.C,IC1*%
X156650000Y-96750000D02*
X160550000Y-96750000D01*
X156650000Y-91850000D02*
X160550000Y-91850000D01*
X155163500Y-91800000D02*
G75*
G03*
X155163500Y-91800000I-63500J0D01*
G01*
%TO.C,BT1*%
X180025000Y-141075000D02*
X102975000Y-141075000D01*
X102975000Y-120425000D02*
X180025000Y-120425000D01*
D17*
%TO.C,J10*%
X140770000Y-95830000D02*
X143430000Y-95830000D01*
X142100000Y-93170000D02*
X143430000Y-93170000D01*
X143430000Y-95710000D02*
X143430000Y-95830000D01*
X140770000Y-95710000D02*
X140770000Y-95830000D01*
X143430000Y-93170000D02*
X143430000Y-94500000D01*
D18*
%TO.C,Q1*%
X146300000Y-101250000D02*
X146300000Y-100050000D01*
X149275000Y-99700000D02*
X146325000Y-99700000D01*
X146325000Y-99700000D02*
X146325000Y-99100000D01*
X149275000Y-99100000D02*
X149275000Y-99700000D01*
X146325000Y-99100000D02*
X149275000Y-99100000D01*
D17*
%TO.C,J19*%
X122330000Y-78460000D02*
X122330000Y-78580000D01*
X121000000Y-75920000D02*
X122330000Y-75920000D01*
X119670000Y-78460000D02*
X119670000Y-78580000D01*
X122330000Y-75920000D02*
X122330000Y-77250000D01*
X119670000Y-78580000D02*
X122330000Y-78580000D01*
%TO.C,J8*%
X180340000Y-114070000D02*
X181670000Y-114070000D01*
X179070000Y-114070000D02*
X179070000Y-116730000D01*
X97730000Y-114070000D02*
X97730000Y-116730000D01*
X181670000Y-114070000D02*
X181670000Y-115400000D01*
X179070000Y-116730000D02*
X97730000Y-116730000D01*
X179070000Y-114070000D02*
X97730000Y-114070000D01*
D16*
%TO.C,C11*%
X156522000Y-84979000D02*
X156522000Y-85279000D01*
X157422000Y-84979000D02*
X157422000Y-85279000D01*
D17*
%TO.C,J13*%
X184070000Y-94530000D02*
X186730000Y-94530000D01*
X184070000Y-94410000D02*
X184070000Y-94530000D01*
X185400000Y-91870000D02*
X186730000Y-91870000D01*
X186730000Y-94410000D02*
X186730000Y-94530000D01*
X186730000Y-91870000D02*
X186730000Y-93200000D01*
%TO.C,J12*%
X134930000Y-89170000D02*
X134930000Y-90500000D01*
X132270000Y-91710000D02*
X132270000Y-91830000D01*
X132270000Y-91830000D02*
X134930000Y-91830000D01*
X133600000Y-89170000D02*
X134930000Y-89170000D01*
X134930000Y-91710000D02*
X134930000Y-91830000D01*
%TO.C,J7*%
X179070000Y-103910000D02*
X179070000Y-106570000D01*
X181670000Y-106570000D02*
X180340000Y-106570000D01*
X97730000Y-103910000D02*
X97730000Y-106570000D01*
X179070000Y-103910000D02*
X97730000Y-103910000D01*
X181670000Y-105240000D02*
X181670000Y-106570000D01*
X179070000Y-106570000D02*
X97730000Y-106570000D01*
%TO.C,J18*%
X105670000Y-78460000D02*
X105670000Y-78580000D01*
X105670000Y-78580000D02*
X108330000Y-78580000D01*
X107000000Y-75920000D02*
X108330000Y-75920000D01*
X108330000Y-75920000D02*
X108330000Y-77250000D01*
X108330000Y-78460000D02*
X108330000Y-78580000D01*
D18*
%TO.C,TH1*%
X124200000Y-77625000D02*
X124800000Y-77625000D01*
%TO.C,Q2*%
X149075000Y-93300000D02*
X149075000Y-93900000D01*
X146125000Y-93300000D02*
X149075000Y-93300000D01*
X146100000Y-95450000D02*
X146100000Y-94250000D01*
X146125000Y-93900000D02*
X146125000Y-93300000D01*
X149075000Y-93900000D02*
X146125000Y-93900000D01*
D17*
%TO.C,J3*%
X168723000Y-74736000D02*
X171383000Y-74736000D01*
X171383000Y-74616000D02*
X171383000Y-74736000D01*
X171383000Y-72076000D02*
X171383000Y-73406000D01*
X168723000Y-74616000D02*
X168723000Y-74736000D01*
X170053000Y-72076000D02*
X171383000Y-72076000D01*
D18*
%TO.C,IC2*%
X133575000Y-99005000D02*
X132050000Y-99005000D01*
%TO.C,R3*%
X145800000Y-88900000D02*
X145800000Y-88300000D01*
D16*
%TO.C,C2*%
X126600000Y-90340000D02*
X126600000Y-89260000D01*
X124800000Y-90340000D02*
X124800000Y-89260000D01*
D18*
%TO.C,Re1*%
X123750000Y-97200000D02*
X123750000Y-97800000D01*
D17*
%TO.C,U4*%
X162340000Y-85000000D02*
X162340000Y-88450000D01*
X172460000Y-85000000D02*
X172460000Y-86950000D01*
X172460000Y-85000000D02*
X172460000Y-83050000D01*
X162340000Y-85000000D02*
X162340000Y-83050000D01*
D16*
%TO.C,C10*%
X159189000Y-84979000D02*
X159189000Y-85279000D01*
X160089000Y-84979000D02*
X160089000Y-85279000D01*
D17*
%TO.C,J9*%
X179565000Y-88810000D02*
X176335000Y-88810000D01*
X174415000Y-87010000D02*
X173985000Y-87010000D01*
X174415000Y-88090000D02*
X174415000Y-87010000D01*
X179565000Y-80990000D02*
X176335000Y-80990000D01*
X174415000Y-82790000D02*
X174415000Y-81710000D01*
X183735000Y-88810000D02*
X181785000Y-88810000D01*
X183735000Y-80990000D02*
X183735000Y-88810000D01*
X183735000Y-80990000D02*
X181785000Y-80990000D01*
%TD*%
M02*
