PCBNEW-LibModule-V1  2022-03-08 20:25:02
# encoding utf-8
Units mm
$INDEX
SOT95P280X145-5N
$EndINDEX
$MODULE SOT95P280X145-5N
Po 0 0 0 15 6227bb9e 00000000 ~~
Li SOT95P280X145-5N
Cd 5-Pin SOT-23
Kw Integrated Circuit
Sc 0
At SMD
AR 
Op 0 0 0
T0 0 0 1.27 1.27 0 0.254 N V 21 N "IC**"
T1 0 0 1.27 1.27 0 0.254 N I 21 N "SOT95P280X145-5N"
DS -2.1 -1.775 2.1 -1.775 0.05 24
DS 2.1 -1.775 2.1 1.775 0.05 24
DS 2.1 1.775 -2.1 1.775 0.05 24
DS -2.1 1.775 -2.1 -1.775 0.05 24
DS -0.8 -1.45 0.8 -1.45 0.1 24
DS 0.8 -1.45 0.8 1.45 0.1 24
DS 0.8 1.45 -0.8 1.45 0.1 24
DS -0.8 1.45 -0.8 -1.45 0.1 24
DS -0.8 -0.5 0.15 -1.45 0.1 24
DS -0.3 -1.45 0.3 -1.45 0.2 21
DS 0.3 -1.45 0.3 1.45 0.2 21
DS 0.3 1.45 -0.3 1.45 0.2 21
DS -0.3 1.45 -0.3 -1.45 0.2 21
DS -1.85 -1.5 -0.65 -1.5 0.2 21
$PAD
Po -1.25 -0.95
Sh "1" R 0.6 1.2 0 0 900
At SMD N 00888000
Ne 0 ""
$EndPAD
$PAD
Po -1.25 0
Sh "2" R 0.6 1.2 0 0 900
At SMD N 00888000
Ne 0 ""
$EndPAD
$PAD
Po -1.25 0.95
Sh "3" R 0.6 1.2 0 0 900
At SMD N 00888000
Ne 0 ""
$EndPAD
$PAD
Po 1.25 0.95
Sh "4" R 0.6 1.2 0 0 900
At SMD N 00888000
Ne 0 ""
$EndPAD
$PAD
Po 1.25 -0.95
Sh "5" R 0.6 1.2 0 0 900
At SMD N 00888000
Ne 0 ""
$EndPAD
$EndMODULE SOT95P280X145-5N
$EndLIBRARY
