!PADS-POWERPCB-V9.5-METRIC! DESIGN DATABASE ASCII FILE 1.0
*PARTDECAL*  ITEMS

RESC1005X55N M 0 0 2 2 1 0 2
CLOSED 5 0.05 0 20
-1.175 0.55
1.175 0.55
1.175 -0.55
-1.175 -0.55
-1.175 0.55
CLOSED 5 0.1 0 27
-0.5 0.25
0.5 0.25
0.5 -0.25
-0.5 -0.25
-0.5 0.25
VALUE 0 0 0 1 1.27 0.127 N LEFT DOWN
Regular <Romansim Stroke Font>
Ref.Des.
VALUE 0 0 0 1 1.27 0.127 N LEFT UP
Regular <Romansim Stroke Font>
Part Type
T-0.55 0 -0.55 0 1
T0.55 0 0.55 0 2
PAD 0 3
-2 0.6 RF 0 0.75 0 0 0 N
-1 0 R
0 0 R

*END*     OF ASCII OUTPUT FILE
