
(module INDC2012X87N (layer F.Cu) (tedit 62502CD1)
  (descr "")
  (fp_text reference REF** (at -0.785 -1.185 0) (layer F.SilkS)
    (effects (font (size 0.393700787402 0.393700787402) (thickness 0.15)))
  )
  (fp_text value INDC2012X87N (at 0.965 1.155 0) (layer F.Fab)
    (effects (font (size 0.393700787402 0.393700787402) (thickness 0.15)))
  )
  (pad 1 smd rect (at -1.175 0.0) (size 1.15 1.0) (layers F.Cu F.Mask F.Paste))
  (pad 2 smd rect (at 1.175 0.0) (size 1.15 1.0) (layers F.Cu F.Mask F.Paste))
  (fp_line (start -2.0 -0.85) (end 2.0 -0.85) (layer F.CrtYd) (width 0.0508))
  (fp_line (start 2.0 -0.85) (end 2.0 0.85) (layer F.CrtYd) (width 0.0508))
  (fp_line (start 2.0 0.85) (end -2.0 0.85) (layer F.CrtYd) (width 0.0508))
  (fp_line (start -2.0 0.85) (end -2.0 -0.85) (layer F.CrtYd) (width 0.0508))
  (fp_line (start -1.0 -0.625) (end 1.0 -0.625) (layer F.Fab) (width 0.127))
  (fp_line (start 1.0 -0.625) (end 1.0 0.625) (layer F.Fab) (width 0.127))
  (fp_line (start 1.0 0.625) (end -1.0 0.625) (layer F.Fab) (width 0.127))
  (fp_line (start -1.0 0.625) (end -1.0 -0.625) (layer F.Fab) (width 0.127))
  (fp_poly
    (pts
      (xy -1.0 -0.625)
      (xy -0.5 -0.625)
      (xy -0.5 0.625)
      (xy -1.0 0.625)
    ) (layer F.Fab) (width 0.01)
  )
  (fp_poly
    (pts
      (xy 0.5 -0.625)
      (xy 1.0 -0.625)
      (xy 1.0 0.625)
      (xy 0.5 0.625)
    ) (layer F.Fab) (width 0.01)
  )
  (fp_line (start -0.4 -0.6) (end 0.4 -0.6) (layer F.SilkS) (width 0.127))
  (fp_line (start -0.4 0.6) (end 0.4 0.6) (layer F.SilkS) (width 0.127))
)