
(module SOT95P280X145-6N (layer F.Cu) (tedit 62502504)
  (descr "")
  (fp_text reference REF** (at 2.445 -2.889 0) (layer F.SilkS)
    (effects (font (size 1.4 1.4) (thickness 0.15)))
  )
  (fp_text value SOT95P280X145-6N (at 12.224 3.111 0) (layer F.Fab)
    (effects (font (size 1.4 1.4) (thickness 0.15)))
  )
  (pad 1 smd roundrect (roundrect_rratio 0.15) (at -1.17 -0.95) (size 1.37 0.59) (layers F.Cu F.Mask F.Paste))
  (pad 2 smd roundrect (roundrect_rratio 0.15) (at -1.17 0.0) (size 1.37 0.59) (layers F.Cu F.Mask F.Paste))
  (pad 3 smd roundrect (roundrect_rratio 0.15) (at -1.17 0.95) (size 1.37 0.59) (layers F.Cu F.Mask F.Paste))
  (pad 4 smd roundrect (roundrect_rratio 0.15) (at 1.17 0.95 180.0) (size 1.37 0.59) (layers F.Cu F.Mask F.Paste))
  (pad 5 smd roundrect (roundrect_rratio 0.15) (at 1.17 0.0 180.0) (size 1.37 0.59) (layers F.Cu F.Mask F.Paste))
  (pad 6 smd roundrect (roundrect_rratio 0.15) (at 1.17 -0.95 180.0) (size 1.37 0.59) (layers F.Cu F.Mask F.Paste))
  (fp_line (start -0.85 1.5) (end -0.85 -1.5) (layer F.Fab) (width 0.127))
  (fp_line (start -0.85 -1.565) (end 0.85 -1.565) (layer F.SilkS) (width 0.127))
  (fp_line (start 0.85 -1.5) (end 0.85 1.5) (layer F.Fab) (width 0.127))
  (fp_line (start 0.85 1.565) (end -0.85 1.565) (layer F.SilkS) (width 0.127))
  (fp_line (start -0.85 -1.5) (end 0.85 -1.5) (layer F.Fab) (width 0.127))
  (fp_line (start 0.85 1.5) (end -0.85 1.5) (layer F.Fab) (width 0.127))
  (fp_circle (center -2.305 -0.95) (end -2.205 -0.95) (layer F.SilkS) (width 0.2))
  (fp_circle (center -2.305 -0.95) (end -2.205 -0.95) (layer F.Fab) (width 0.2))
  (fp_line (start -2.105 1.75) (end -2.105 -1.75) (layer F.CrtYd) (width 0.05))
  (fp_line (start -2.105 -1.75) (end 2.105 -1.75) (layer F.CrtYd) (width 0.05))
  (fp_line (start 2.105 -1.75) (end 2.105 1.75) (layer F.CrtYd) (width 0.05))
  (fp_line (start 2.105 1.75) (end -2.105 1.75) (layer F.CrtYd) (width 0.05))
)