PCBNEW-LibModule-V1  2022-04-08 08:43:36
# encoding utf-8
Units mm
$INDEX
RESC1005X55N
$EndINDEX
$MODULE RESC1005X55N
Po 0 0 0 15 624fe7a8 00000000 ~~
Li RESC1005X55N
Cd size code 05
Kw Capacitor
Sc 0
At SMD
AR 
Op 0 0 0
T0 0 0 1.27 1.27 0 0.254 N V 21 N "C**"
T1 0 0 1.27 1.27 0 0.254 N I 21 N "RESC1005X55N"
DS -1.175 -0.55 1.175 -0.55 0.05 24
DS 1.175 -0.55 1.175 0.55 0.05 24
DS 1.175 0.55 -1.175 0.55 0.05 24
DS -1.175 0.55 -1.175 -0.55 0.05 24
DS -0.5 -0.25 0.5 -0.25 0.1 24
DS 0.5 -0.25 0.5 0.25 0.1 24
DS 0.5 0.25 -0.5 0.25 0.1 24
DS -0.5 0.25 -0.5 -0.25 0.1 24
$PAD
Po -0.55 0
Sh "1" R 0.6 0.75 0 0 900
At SMD N 00888000
Ne 0 ""
$EndPAD
$PAD
Po 0.55 0
Sh "2" R 0.6 0.75 0 0 900
At SMD N 00888000
Ne 0 ""
$EndPAD
$EndMODULE RESC1005X55N
$EndLIBRARY
