PCBNEW-LibModule-V1  2022-03-03 17:28:33
# encoding utf-8
Units mm
$INDEX
SOT95P240X115-3N
$EndINDEX
$MODULE SOT95P240X115-3N
Po 0 0 0 15 6220fac1 00000000 ~~
Li SOT95P240X115-3N
Cd sot-23pkg
Kw Diode
Sc 0
At SMD
AR 
Op 0 0 0
T0 0 0 1.27 1.27 0 0.254 N V 21 N "D**"
T1 0 0 1.27 1.27 0 0.254 N I 21 N "SOT95P240X115-3N"
DS -1.9 -1.75 1.9 -1.75 0.05 24
DS 1.9 -1.75 1.9 1.75 0.05 24
DS 1.9 1.75 -1.9 1.75 0.05 24
DS -1.9 1.75 -1.9 -1.75 0.05 24
DS -0.65 -1.45 0.65 -1.45 0.1 24
DS 0.65 -1.45 0.65 1.45 0.1 24
DS 0.65 1.45 -0.65 1.45 0.1 24
DS -0.65 1.45 -0.65 -1.45 0.1 24
DS -0.65 -0.5 0.3 -1.45 0.1 24
DS -0.2 -1.45 0.2 -1.45 0.2 21
DS 0.2 -1.45 0.2 1.45 0.2 21
DS 0.2 1.45 -0.2 1.45 0.2 21
DS -0.2 1.45 -0.2 -1.45 0.2 21
DS -1.65 -1.5 -0.55 -1.5 0.2 21
$PAD
Po -1.1 -0.95
Sh "1" R 0.6 1.1 0 0 900
At SMD N 00888000
Ne 0 ""
$EndPAD
$PAD
Po -1.1 0.95
Sh "2" R 0.6 1.1 0 0 900
At SMD N 00888000
Ne 0 ""
$EndPAD
$PAD
Po 1.1 0
Sh "3" R 0.6 1.1 0 0 900
At SMD N 00888000
Ne 0 ""
$EndPAD
$EndMODULE SOT95P240X115-3N
$EndLIBRARY
