(module "SOT95P240X115-3N" (layer F.Cu)
  (descr "sot-23pkg")
  (tags "Diode")
  (attr smd)
  (fp_text reference D** (at 0 0) (layer F.SilkS)
    (effects (font (size 1.27 1.27) (thickness 0.254)))
  )
  (fp_text user %R (at 0 0) (layer F.Fab)
    (effects (font (size 1.27 1.27) (thickness 0.254)))
  )
  (fp_text value "SOT95P240X115-3N" (at 0 0) (layer F.SilkS) hide
    (effects (font (size 1.27 1.27) (thickness 0.254)))
  )
  (fp_line (start -1.9 -1.75) (end 1.9 -1.75) (layer F.CrtYd) (width 0.05))
  (fp_line (start 1.9 -1.75) (end 1.9 1.75) (layer F.CrtYd) (width 0.05))
  (fp_line (start 1.9 1.75) (end -1.9 1.75) (layer F.CrtYd) (width 0.05))
  (fp_line (start -1.9 1.75) (end -1.9 -1.75) (layer F.CrtYd) (width 0.05))
  (fp_line (start -0.65 -1.45) (end 0.65 -1.45) (layer F.Fab) (width 0.1))
  (fp_line (start 0.65 -1.45) (end 0.65 1.45) (layer F.Fab) (width 0.1))
  (fp_line (start 0.65 1.45) (end -0.65 1.45) (layer F.Fab) (width 0.1))
  (fp_line (start -0.65 1.45) (end -0.65 -1.45) (layer F.Fab) (width 0.1))
  (fp_line (start -0.65 -0.5) (end 0.3 -1.45) (layer F.Fab) (width 0.1))
  (fp_line (start -0.2 -1.45) (end 0.2 -1.45) (layer F.SilkS) (width 0.2))
  (fp_line (start 0.2 -1.45) (end 0.2 1.45) (layer F.SilkS) (width 0.2))
  (fp_line (start 0.2 1.45) (end -0.2 1.45) (layer F.SilkS) (width 0.2))
  (fp_line (start -0.2 1.45) (end -0.2 -1.45) (layer F.SilkS) (width 0.2))
  (fp_line (start -1.65 -1.5) (end -0.55 -1.5) (layer F.SilkS) (width 0.2))
  (pad 1 smd rect (at -1.1 -0.95 90) (size 0.6 1.1) (layers F.Cu F.Paste F.Mask))
  (pad 2 smd rect (at -1.1 0.95 90) (size 0.6 1.1) (layers F.Cu F.Paste F.Mask))
  (pad 3 smd rect (at 1.1 0 90) (size 0.6 1.1) (layers F.Cu F.Paste F.Mask))
  (model CJ431.stp
    (at (xyz 0 0 0))
    (scale (xyz 1 1 1))
    (rotate (xyz 0 0 0))
  )
)
