(module "RESC1608X55N" (layer F.Cu)
  (descr "0603")
  (tags "Resistor")
  (attr smd)
  (fp_text reference R** (at 0 0) (layer F.SilkS)
    (effects (font (size 1.27 1.27) (thickness 0.254)))
  )
  (fp_text user %R (at 0 0) (layer F.Fab)
    (effects (font (size 1.27 1.27) (thickness 0.254)))
  )
  (fp_text value "RESC1608X55N" (at 0 0) (layer F.SilkS) hide
    (effects (font (size 1.27 1.27) (thickness 0.254)))
  )
  (fp_line (start -1.5 -0.75) (end 1.5 -0.75) (layer F.CrtYd) (width 0.05))
  (fp_line (start 1.5 -0.75) (end 1.5 0.75) (layer F.CrtYd) (width 0.05))
  (fp_line (start 1.5 0.75) (end -1.5 0.75) (layer F.CrtYd) (width 0.05))
  (fp_line (start -1.5 0.75) (end -1.5 -0.75) (layer F.CrtYd) (width 0.05))
  (fp_line (start -0.8 -0.4) (end 0.8 -0.4) (layer F.Fab) (width 0.1))
  (fp_line (start 0.8 -0.4) (end 0.8 0.4) (layer F.Fab) (width 0.1))
  (fp_line (start 0.8 0.4) (end -0.8 0.4) (layer F.Fab) (width 0.1))
  (fp_line (start -0.8 0.4) (end -0.8 -0.4) (layer F.Fab) (width 0.1))
  (fp_line (start 0 -0.3) (end 0 0.3) (layer F.SilkS) (width 0.2))
  (pad 1 smd rect (at -0.8 0 0) (size 0.9 0.95) (layers F.Cu F.Paste F.Mask))
  (pad 2 smd rect (at 0.8 0 0) (size 0.9 0.95) (layers F.Cu F.Paste F.Mask))
  (model 0603WAF3301T5E.stp
    (at (xyz 0 0 0))
    (scale (xyz 1 1 1))
    (rotate (xyz 0 0 0))
  )
)
