PCBNEW-LibModule-V1  2022-03-10 20:45:25
# encoding utf-8
Units mm
$INDEX
SOT229P700X180-4N
$EndINDEX
$MODULE SOT229P700X180-4N
Po 0 0 0 15 622a6365 00000000 ~~
Li SOT229P700X180-4N
Cd sot-223
Kw Integrated Circuit
Sc 0
At SMD
AR 
Op 0 0 0
T0 0 0 1.27 1.27 0 0.254 N V 21 N "IC**"
T1 0 0 1.27 1.27 0 0.254 N I 21 N "SOT229P700X180-4N"
DS -4.25 -3.605 4.25 -3.605 0.05 24
DS 4.25 -3.605 4.25 3.605 0.05 24
DS 4.25 3.605 -4.25 3.605 0.05 24
DS -4.25 3.605 -4.25 -3.605 0.05 24
DS -1.752 -3.252 1.752 -3.252 0.1 24
DS 1.752 -3.252 1.752 3.252 0.1 24
DS 1.752 3.252 -1.752 3.252 0.1 24
DS -1.752 3.252 -1.752 -3.252 0.1 24
DS -1.752 -0.962 0.538 -3.252 0.1 24
DS -1.752 -3.252 1.752 -3.252 0.2 21
DS 1.752 -3.252 1.752 3.252 0.2 21
DS 1.752 3.252 -1.752 3.252 0.2 21
DS -1.752 3.252 -1.752 -3.252 0.2 21
DS -4 -3.115 -2.7 -3.115 0.2 21
$PAD
Po -3.35 -2.29
Sh "1" R 0.95 1.3 0 0 900
At SMD N 00888000
Ne 0 ""
$EndPAD
$PAD
Po -3.35 0
Sh "2" R 0.95 1.3 0 0 900
At SMD N 00888000
Ne 0 ""
$EndPAD
$PAD
Po -3.35 2.29
Sh "3" R 0.95 1.3 0 0 900
At SMD N 00888000
Ne 0 ""
$EndPAD
$PAD
Po 3.35 0
Sh "4" R 1.3 3.25 0 0 0
At SMD N 00888000
Ne 0 ""
$EndPAD
$EndMODULE SOT229P700X180-4N
$EndLIBRARY
