%TF.GenerationSoftware,KiCad,Pcbnew,(6.0.2)*%
%TF.CreationDate,2022-03-20T19:34:01+02:00*%
%TF.ProjectId,main,6d61696e-2e6b-4696-9361-645f70636258,rev?*%
%TF.SameCoordinates,Original*%
%TF.FileFunction,Paste,Top*%
%TF.FilePolarity,Positive*%
%FSLAX46Y46*%
G04 Gerber Fmt 4.6, Leading zero omitted, Abs format (unit mm)*
G04 Created by KiCad (PCBNEW (6.0.2)) date 2022-03-20 19:34:01*
%MOMM*%
%LPD*%
G01*
G04 APERTURE LIST*
G04 Aperture macros list*
%AMRoundRect*
0 Rectangle with rounded corners*
0 $1 Rounding radius*
0 $2 $3 $4 $5 $6 $7 $8 $9 X,Y pos of 4 corners*
0 Add a 4 corners polygon primitive as box body*
4,1,4,$2,$3,$4,$5,$6,$7,$8,$9,$2,$3,0*
0 Add four circle primitives for the rounded corners*
1,1,$1+$1,$2,$3*
1,1,$1+$1,$4,$5*
1,1,$1+$1,$6,$7*
1,1,$1+$1,$8,$9*
0 Add four rect primitives between the rounded corners*
20,1,$1+$1,$2,$3,$4,$5,0*
20,1,$1+$1,$4,$5,$6,$7,0*
20,1,$1+$1,$6,$7,$8,$9,0*
20,1,$1+$1,$8,$9,$2,$3,0*%
G04 Aperture macros list end*
%ADD10R,1.100000X1.000000*%
%ADD11R,1.820000X1.200000*%
%ADD12R,1.000000X1.100000*%
%ADD13R,0.900000X0.950000*%
%ADD14RoundRect,0.075600X-0.224400X-0.194400X0.224400X-0.194400X0.224400X0.194400X-0.224400X0.194400X0*%
%ADD15R,2.000000X1.500000*%
%ADD16R,2.000000X3.800000*%
%ADD17RoundRect,0.150000X0.587500X0.150000X-0.587500X0.150000X-0.587500X-0.150000X0.587500X-0.150000X0*%
%ADD18RoundRect,0.150000X-0.150000X0.825000X-0.150000X-0.825000X0.150000X-0.825000X0.150000X0.825000X0*%
%ADD19R,1.200000X0.600000*%
%ADD20R,0.950000X0.900000*%
%ADD21RoundRect,0.017500X0.157500X-0.207500X0.157500X0.207500X-0.157500X0.207500X-0.157500X-0.207500X0*%
%ADD22RoundRect,0.017500X0.207500X0.157500X-0.207500X0.157500X-0.207500X-0.157500X0.207500X-0.157500X0*%
%ADD23RoundRect,0.150000X-0.587500X-0.150000X0.587500X-0.150000X0.587500X0.150000X-0.587500X0.150000X0*%
%ADD24R,1.550000X0.600000*%
%ADD25R,7.350000X6.350000*%
%ADD26R,1.020000X0.940000*%
%ADD27RoundRect,0.075600X0.224400X0.194400X-0.224400X0.194400X-0.224400X-0.194400X0.224400X-0.194400X0*%
%ADD28R,0.940000X1.020000*%
%ADD29R,1.200000X0.750000*%
%ADD30R,1.225000X0.750000*%
%ADD31R,1.525000X0.700000*%
%ADD32R,2.513000X3.402000*%
%ADD33RoundRect,0.150000X0.150000X-0.825000X0.150000X0.825000X-0.150000X0.825000X-0.150000X-0.825000X0*%
%ADD34R,2.000000X0.500000*%
%ADD35R,1.700000X2.000000*%
%ADD36R,1.200000X1.820000*%
G04 APERTURE END LIST*
D10*
%TO.C,C9*%
X116150000Y-76000000D03*
X117850000Y-76000000D03*
%TD*%
D11*
%TO.C,C3*%
X129300000Y-91160000D03*
X129300000Y-88240000D03*
%TD*%
D12*
%TO.C,C6*%
X120015000Y-82545000D03*
X120015000Y-84245000D03*
%TD*%
D13*
%TO.C,R1*%
X151200000Y-94800000D03*
X152800000Y-94800000D03*
%TD*%
D14*
%TO.C,C5*%
X123190000Y-82585000D03*
X123190000Y-83445000D03*
%TD*%
D15*
%TO.C,U2*%
X156950000Y-69900000D03*
D16*
X163250000Y-72200000D03*
D15*
X156950000Y-72200000D03*
X156950000Y-74500000D03*
%TD*%
D17*
%TO.C,U3*%
X176137500Y-94550000D03*
X176137500Y-92650000D03*
X174262500Y-93600000D03*
%TD*%
D18*
%TO.C,U7*%
X139000000Y-70380000D03*
X137730000Y-70380000D03*
X136460000Y-70380000D03*
X135190000Y-70380000D03*
X135190000Y-75330000D03*
X136460000Y-75330000D03*
X137730000Y-75330000D03*
X139000000Y-75330000D03*
%TD*%
D11*
%TO.C,C1*%
X156900000Y-99640000D03*
X156900000Y-102560000D03*
%TD*%
D19*
%TO.C,Q4*%
X181850000Y-99150000D03*
X181850000Y-97250000D03*
X179350000Y-98200000D03*
%TD*%
%TO.C,Q3*%
X179450000Y-93250000D03*
X179450000Y-95150000D03*
X181950000Y-94200000D03*
%TD*%
D13*
%TO.C,R2*%
X122785000Y-93890000D03*
X124385000Y-93890000D03*
%TD*%
D20*
%TO.C,R15*%
X176600000Y-98200000D03*
X176600000Y-96600000D03*
%TD*%
D21*
%TO.C,U8*%
X116090000Y-84415000D03*
X116590000Y-84415000D03*
X117090000Y-84415000D03*
X117590000Y-84415000D03*
D22*
X117605000Y-83915000D03*
X117605000Y-83400000D03*
D21*
X117590000Y-82885000D03*
X117090000Y-82885000D03*
X116590000Y-82885000D03*
X116090000Y-82885000D03*
D22*
X116075000Y-83400000D03*
X116075000Y-83900000D03*
%TD*%
D20*
%TO.C,R4*%
X135200000Y-97200000D03*
X135200000Y-95600000D03*
%TD*%
D13*
%TO.C,R5*%
X152700000Y-92100000D03*
X151100000Y-92100000D03*
%TD*%
D20*
%TO.C,R6*%
X146530000Y-76730000D03*
X146530000Y-75130000D03*
%TD*%
D23*
%TO.C,U1*%
X150912500Y-96800000D03*
X150912500Y-98700000D03*
X152787500Y-97750000D03*
%TD*%
D24*
%TO.C,IC3*%
X170300000Y-96205000D03*
X170300000Y-94935000D03*
X170300000Y-93665000D03*
X170300000Y-92395000D03*
X164900000Y-92395000D03*
X164900000Y-93665000D03*
X164900000Y-94935000D03*
X164900000Y-96205000D03*
%TD*%
D20*
%TO.C,R12*%
X127000000Y-76665000D03*
X127000000Y-78265000D03*
%TD*%
%TO.C,R16*%
X173900000Y-96600000D03*
X173900000Y-98200000D03*
%TD*%
D12*
%TO.C,C8*%
X126700000Y-74050000D03*
X126700000Y-72350000D03*
%TD*%
D20*
%TO.C,R10*%
X128200000Y-82300000D03*
X128200000Y-83900000D03*
%TD*%
D24*
%TO.C,IC1*%
X155900000Y-92395000D03*
X155900000Y-93665000D03*
X155900000Y-94935000D03*
X155900000Y-96205000D03*
X161300000Y-96205000D03*
X161300000Y-94935000D03*
X161300000Y-93665000D03*
X161300000Y-92395000D03*
%TD*%
D20*
%TO.C,R9*%
X149800000Y-75100000D03*
X149800000Y-76700000D03*
%TD*%
D25*
%TO.C,BT1*%
X180830000Y-130750000D03*
X102170000Y-130750000D03*
%TD*%
D19*
%TO.C,Q1*%
X148350000Y-98700000D03*
X148350000Y-96800000D03*
X145850000Y-97750000D03*
%TD*%
D26*
%TO.C,D1*%
X120575000Y-92900000D03*
X120575000Y-91320000D03*
%TD*%
D20*
%TO.C,R8*%
X149800000Y-71400000D03*
X149800000Y-73000000D03*
%TD*%
D27*
%TO.C,C7*%
X128700000Y-74430000D03*
X128700000Y-73570000D03*
%TD*%
D20*
%TO.C,R11*%
X126000000Y-82400000D03*
X126000000Y-84000000D03*
%TD*%
D28*
%TO.C,D2*%
X122960000Y-101500000D03*
X124540000Y-101500000D03*
%TD*%
D29*
%TO.C,TH1*%
X124500000Y-78250000D03*
D30*
X124487500Y-77000000D03*
%TD*%
D19*
%TO.C,Q2*%
X145850000Y-92550000D03*
X145850000Y-94450000D03*
X148350000Y-93500000D03*
%TD*%
D13*
%TO.C,R13*%
X117750000Y-80250000D03*
X116150000Y-80250000D03*
%TD*%
D31*
%TO.C,IC2*%
X132812000Y-98305000D03*
X132812000Y-97035000D03*
X132812000Y-95765000D03*
X132812000Y-94495000D03*
X127388000Y-94495000D03*
X127388000Y-95765000D03*
X127388000Y-97035000D03*
X127388000Y-98305000D03*
D32*
X130100000Y-96400000D03*
%TD*%
D13*
%TO.C,R3*%
X146600000Y-88600000D03*
X145000000Y-88600000D03*
%TD*%
D11*
%TO.C,C2*%
X125700000Y-91260000D03*
X125700000Y-88340000D03*
%TD*%
D13*
%TO.C,Re1*%
X122950000Y-97500000D03*
X124550000Y-97500000D03*
%TD*%
D33*
%TO.C,U4*%
X162955000Y-87475000D03*
X164225000Y-87475000D03*
X165495000Y-87475000D03*
X166765000Y-87475000D03*
X168035000Y-87475000D03*
X169305000Y-87475000D03*
X170575000Y-87475000D03*
X171845000Y-87475000D03*
X171845000Y-82525000D03*
X170575000Y-82525000D03*
X169305000Y-82525000D03*
X168035000Y-82525000D03*
X166765000Y-82525000D03*
X165495000Y-82525000D03*
X164225000Y-82525000D03*
X162955000Y-82525000D03*
%TD*%
D34*
%TO.C,J9*%
X175125000Y-86500000D03*
X175125000Y-85700000D03*
X175125000Y-84900000D03*
X175125000Y-84100000D03*
X175125000Y-83300000D03*
D35*
X180675000Y-89350000D03*
X175225000Y-80450000D03*
X175225000Y-89350000D03*
X180675000Y-80450000D03*
%TD*%
D36*
%TO.C,C4*%
X161080000Y-78400000D03*
X164000000Y-78400000D03*
%TD*%
D13*
%TO.C,R14*%
X116150000Y-78200000D03*
X117750000Y-78200000D03*
%TD*%
M02*
