PCBNEW-LibModule-V1  2022-03-09 21:13:32
# encoding utf-8
Units mm
$INDEX
CAPC3216X180N
$EndINDEX
$MODULE CAPC3216X180N
Po 0 0 0 15 6229187c 00000000 ~~
Li CAPC3216X180N
Cd CL31 (1206)
Kw Capacitor
Sc 0
At SMD
AR 
Op 0 0 0
T0 0 0 1.27 1.27 0 0.254 N V 21 N "C**"
T1 0 0 1.27 1.27 0 0.254 N I 21 N "CAPC3216X180N"
DS -2.065 -1.06 2.065 -1.06 0.05 24
DS 2.065 -1.06 2.065 1.06 0.05 24
DS 2.065 1.06 -2.065 1.06 0.05 24
DS -2.065 1.06 -2.065 -1.06 0.05 24
DS -1.6 -0.8 1.6 -0.8 0.1 24
DS 1.6 -0.8 1.6 0.8 0.1 24
DS 1.6 0.8 -1.6 0.8 0.1 24
DS -1.6 0.8 -1.6 -0.8 0.1 24
DS 0 -0.7 0 0.7 0.2 21
$PAD
Po -1.39 0
Sh "1" R 1.05 1.82 0 0 0
At SMD N 00888000
Ne 0 ""
$EndPAD
$PAD
Po 1.39 0
Sh "2" R 1.05 1.82 0 0 0
At SMD N 00888000
Ne 0 ""
$EndPAD
$EndMODULE CAPC3216X180N
$EndLIBRARY
