PCBNEW-LibModule-V1  2022-03-03 14:58:25
# encoding utf-8
Units mm
$INDEX
SON50P200X300X80-9N-D
$EndINDEX
$MODULE SON50P200X300X80-9N-D
Po 0 0 0 15 6220d791 00000000 ~~
Li SON50P200X300X80-9N-D
Cd 8-Lead Plastic DFN (3mm × 2mm)
Kw Integrated Circuit
Sc 0
At SMD
AR 
Op 0 0 0
T0 0 0 1.27 1.27 0 0.254 N V 21 N "IC**"
T1 0 0 1.27 1.27 0 0.254 N I 21 N "SON50P200X300X80-9N-D"
DS -1.625 -1.8 1.625 -1.8 0.05 24
DS 1.625 -1.8 1.625 1.8 0.05 24
DS 1.625 1.8 -1.625 1.8 0.05 24
DS -1.625 1.8 -1.625 -1.8 0.05 24
DS -1 -1.5 1 -1.5 0.1 24
DS 1 -1.5 1 1.5 0.1 24
DS 1 1.5 -1 1.5 0.1 24
DS -1 1.5 -1 -1.5 0.1 24
DS -1 -1 -0.5 -1.5 0.1 24
DC -1.375 -1.4 -1.25 -1.4 0.254 21
$PAD
Po -0.95 -0.75
Sh "1" R 0.3 0.85 0 0 900
At SMD N 00888000
Ne 0 ""
$EndPAD
$PAD
Po -0.95 -0.25
Sh "2" R 0.3 0.85 0 0 900
At SMD N 00888000
Ne 0 ""
$EndPAD
$PAD
Po -0.95 0.25
Sh "3" R 0.3 0.85 0 0 900
At SMD N 00888000
Ne 0 ""
$EndPAD
$PAD
Po -0.95 0.75
Sh "4" R 0.3 0.85 0 0 900
At SMD N 00888000
Ne 0 ""
$EndPAD
$PAD
Po 0.95 0.75
Sh "5" R 0.3 0.85 0 0 900
At SMD N 00888000
Ne 0 ""
$EndPAD
$PAD
Po 0.95 0.25
Sh "6" R 0.3 0.85 0 0 900
At SMD N 00888000
Ne 0 ""
$EndPAD
$PAD
Po 0.95 -0.25
Sh "7" R 0.3 0.85 0 0 900
At SMD N 00888000
Ne 0 ""
$EndPAD
$PAD
Po 0.95 -0.75
Sh "8" R 0.3 0.85 0 0 900
At SMD N 00888000
Ne 0 ""
$EndPAD
$PAD
Po 0 0
Sh "9" R 0.61 2.2 0 0 0
At SMD N 00888000
Ne 0 ""
$EndPAD
$EndMODULE SON50P200X300X80-9N-D
$EndLIBRARY
